-0.782716,0.000696
0.936038,0.674014
-0.173929,-0.613538
0.744730,-0.238525
-0.037211,-0.005119
0.489420,0.897679
-0.630261,0.353462
0.880365,0.490537
-0.077295,0.507873
0.672391,-0.120898
-0.466398,0.216429
-0.723583,0.689352
-0.106008,-0.660940
0.993196,0.187017
0.361756,0.256866
-0.950248,0.579040
-0.742438,0.985790
0.253054,0.083633
-0.627748,-0.002216
0.845108,0.335040
0.992665,0.334527
0.232719,-0.637597
-0.312011,0.113084
0.852940,0.610694
-0.379043,0.525331
-0.510203,0.154559
-0.258240,-0.233786
-0.156089,0.635751
0.105273,-0.162893
-0.177232,-0.532971
-0.906027,-0.127480
-0.953930,-0.648465
-0.141689,0.299124
0.435168,0.230562
-0.703092,0.280275
-0.434397,-0.710428
-0.385198,0.798322
-0.348024,0.302791
-0.088594,-0.495084
-0.086514,0.532363
-0.969753,0.403282
-0.313078,-0.227994
-0.830504,0.530833
-0.592242,0.274770
-0.632060,0.230526
0.741799,-0.538087
-0.896954,0.787869
-0.186553,-0.038643
0.086993,-0.751385
-0.808081,0.383901
0.528890,-0.242478
0.673473,-0.856308
-0.444156,-0.674551
0.446484,0.467249
-0.169636,-0.640031
-0.000388,-0.139389
0.763252,0.686534
0.632618,0.932748
0.217367,-0.959624
0.207517,0.585307
0.270902,-0.050684
-0.952780,0.373948
-0.262815,-0.139333
-0.664695,0.824178
0.109282,-0.472776
0.208078,-0.361828
0.284747,-0.118449
-0.218136,0.840590
0.207000,-0.771652
0.307840,-0.962636
-0.411683,-0.692548
-0.102025,-0.648431
0.993986,-0.469407
-0.715683,0.211353
-0.429031,0.491834
-0.203340,0.841870
-0.558850,-0.156120
0.215819,0.178335
0.704547,0.551124
0.002513,-0.186172
-0.921652,-0.789409
0.452000,0.363094
0.092142,-0.766135
0.203685,-0.700858
-0.537788,-0.488476
-0.663494,0.050530
-0.181024,0.234481
0.402099,-0.187037
0.765074,0.686416
-0.975684,-0.663957
0.178250,-0.179024
-0.822086,0.619400
0.664855,0.393732
-0.202265,0.369402
-0.055144,0.800248
-0.816770,0.023204
-0.989161,0.635231
-0.613702,0.102981
0.869095,0.589983
0.402123,-0.668692
-0.898493,0.738628
0.381837,-0.079516
-0.026890,-0.216064
0.733446,-0.261816
-0.529648,0.757762
0.074227,0.648601
-0.421262,0.252141
0.268001,-0.756407
-0.354127,-0.934263
0.612995,0.590729
0.865985,0.796226
-0.386068,0.876824
0.431456,0.000231
-0.020196,0.300551
-0.409786,-0.618073
0.631859,-0.308279
-0.879444,0.013696
0.612205,0.093665
0.797632,0.345652
0.831849,-0.732016
0.103414,-0.093924
0.916585,0.682152
-0.841783,0.184586
0.925745,-0.195910
0.250323,0.538740
-0.605181,0.116307
0.334966,0.008751
-0.006869,-0.233578
-0.991018,0.972935
-0.933027,-0.400804
-0.645138,0.698831
0.290917,-0.524582
-0.287473,-0.096878
0.569083,-0.489841
-0.751226,0.400932
-0.221857,0.352187
-0.692991,-0.305272
0.034339,-0.534774
0.879314,-0.039916
0.269316,0.129636
-0.501176,0.664135
-0.754056,0.833789
-0.327114,0.239074
-0.399789,-0.318132
0.212009,-0.332817
0.281064,0.566872
-0.633985,-0.428019
-0.957710,0.078542
0.475103,0.611373
0.588702,0.723877
0.012305,-0.633155
0.076064,0.319313
0.061572,-0.889597
0.784539,-0.059114
0.070486,0.053855
-0.929477,0.569310
-0.282011,-0.683534
0.403099,0.390875
0.555541,-0.996691
-0.927257,-0.232450
-0.329507,0.353807
-0.665578,0.036508
0.925788,-0.623289
-0.884950,0.400891
0.988084,0.703752
0.124767,0.000389
-0.929403,-0.799169
-0.680298,0.132169
-0.688766,-0.895759
-0.926945,0.381720
0.158096,-0.856422
-0.048970,0.876085
-0.539955,-0.645872
0.266961,-0.984415
-0.642562,0.339704
-0.216865,0.027931
-0.306489,0.117557
-0.935562,-0.380701
0.494269,-0.820511
-0.979810,0.482353
0.883240,0.144957
-0.517258,0.953837
0.345788,-0.197556
0.086006,0.657022
-0.093315,0.159062
0.038742,-0.935219
0.302640,0.989772
0.940866,0.762684
-0.656100,0.207827
0.778269,-0.298662
-0.452469,-0.438595
0.729268,0.241041
0.678962,0.793707
0.860340,0.173231
0.973195,0.880530
-0.344416,0.856436
0.025487,0.138326
0.810273,-0.628725
0.940770,-0.103721
-0.971704,-0.152545
-0.944660,0.067038
-0.087765,0.357980
0.056810,-0.146899
0.120664,0.400710
-0.939072,-0.101066
-0.897952,-0.391541
0.460339,0.831316
0.849500,0.139301
0.625023,0.709840
-0.687467,0.598218
0.590370,-0.031883
0.454654,-0.384144
-0.893557,0.264926
-0.012869,-0.952787
-0.838795,0.015428
-0.105333,-0.783454
-0.917534,0.806903
0.574526,0.139276
-0.339996,-0.304810
-0.460014,-0.279068
0.594124,-0.357967
0.329391,0.054463
-0.526651,0.178891
-0.806236,-0.901628
-0.111269,-0.493703
0.696590,-0.520899
0.474414,0.151244
0.094958,0.580856
-0.583830,-0.917911
0.628069,-0.422625
0.097516,-0.477264
-0.206079,0.179982
-0.670361,-0.631553
-0.680742,-0.010357
0.063637,-0.140756
0.710575,-0.342239
0.501277,0.039966
0.712224,0.974627
-0.781143,0.905988
-0.927001,0.107588
-0.587715,0.769589
0.586689,0.886698
-0.079167,-0.318353
0.467554,0.337003
-0.236264,0.095623
0.914378,0.861252
0.618360,-0.291701
0.041235,0.947998
0.076745,0.360493
-0.062359,-0.859618
-0.780263,-0.351784
-0.201857,0.721014
0.688182,-0.489634
0.695641,0.907039
-0.583646,0.768640
0.014627,-0.171361
0.538228,-0.398683
-0.284663,-0.540939
0.282964,-0.817109
0.796064,-0.953300
0.278515,0.710442
0.907952,-0.103126
-0.581260,-0.050813
-0.155127,0.495485
-0.690321,0.782514
0.635867,-0.470584
-0.569270,-0.565990
-0.749570,-0.881088
-0.055623,0.946071
-0.974048,0.360731
0.714710,0.040579
-0.810630,0.252939
0.641896,-0.095293
0.712000,-0.075140
0.087598,0.508064
-0.028441,-0.633887
0.218505,-0.120489
0.262987,0.637245
0.828698,-0.892140
0.132731,-0.861623
0.890373,-0.231402
-0.332207,-0.678897
0.202609,-0.081777
-0.559984,-0.853015
-0.135706,-0.534033
0.507716,-0.420996
0.506546,0.697086
0.831943,0.148442
-0.398207,0.543943
-0.926698,0.689391
0.052007,0.044861
-0.944496,-0.729488
0.924372,0.318491
0.907758,0.753070
0.426350,0.040489
0.891447,0.316724
0.809087,-0.440760
0.637827,0.011696
0.477463,-0.922157
0.158681,-0.658243
-0.456190,-0.333603
-0.079239,-0.949643
-0.636517,-0.247295
0.198798,-0.034724
-0.703352,0.272100
-0.345333,0.348655
-0.683039,-0.289829
0.619167,-0.758667
-0.971339,0.526925
0.994402,0.455012
-0.432586,0.885849
-0.228265,-0.623499
-0.554911,-0.590437
0.388196,0.922552
-0.512594,-0.453123
-0.735692,0.031216
0.213275,0.185070
0.081572,0.576758
0.937774,-0.719629
-0.457966,-0.765578
0.552471,0.196701
0.583077,0.869432
0.906872,0.202245
-0.889236,0.935533
-0.270830,-0.894833
0.390545,0.296584
0.991016,-0.837719
0.673085,-0.563895
-0.428157,0.061281
-0.641344,0.059249
0.608159,-0.377035
-0.909535,-0.178567
0.808034,0.172037
-0.601809,0.745809
0.452408,-0.059775
0.980231,0.004879
-0.863073,0.563308
-0.125689,-0.956201
-0.234447,-0.014925
0.979332,0.494723
0.090242,0.369877
-0.208693,0.081257
0.532158,-0.535608
0.517362,-0.895999
0.525673,0.876018
0.163250,0.133832
-0.501017,0.253715
0.955265,-0.692983
-0.574248,-0.646544
-0.947174,0.878160
0.293681,-0.966944
-0.116961,0.430608
0.596364,0.757350
0.474406,-0.638083
-0.257576,0.453738
0.856640,0.832666
-0.176384,-0.352053
-0.086077,-0.644226
0.112338,-0.568715
-0.540225,-0.361989
-0.692697,0.623025
0.771843,-0.193714
-0.123260,0.727107
0.113303,0.302492
-0.919437,0.166129
0.180652,0.374244
0.199185,-0.936309
-0.195148,-0.204450
0.821041,-0.720742
0.157467,-0.436535
0.732997,0.014107
-0.603869,-0.443387
0.662053,0.310054
-0.087614,-0.225608
0.741340,0.372161
0.412403,-0.951357
-0.004814,0.184246
-0.145070,0.871926
-0.088647,0.968233
0.174418,-0.008084
0.134362,-0.644930
-0.633840,-0.666452
-0.581239,0.171012
0.129097,-0.760199
0.450270,-0.713436
-0.196734,0.183267
0.300671,0.199397
0.739880,-0.037276
-0.490548,-0.347734
0.737116,-0.749208
-0.975573,0.149519
-0.700565,0.019613
-0.666235,0.154365
-0.108461,0.245118
0.122598,-0.934043
-0.762966,-0.743040
-0.578973,-0.396806
-0.409493,-0.160213
0.774207,0.719605
0.079589,0.224477
-0.993831,0.882855
-0.592256,0.306840
0.082252,-0.852376
-0.730436,0.591704
-0.200110,-0.993320
0.842496,-0.175683
0.156200,-0.858069
0.843930,0.489964
0.296296,-0.264531
-0.264918,-0.581106
-0.198574,-0.027884
-0.324147,0.222453
0.575311,0.266361
-0.937760,0.349517
-0.014035,0.141829
-0.426006,-0.007866
0.024684,-0.018261
-0.701026,-0.893064
0.129363,-0.431462
0.698641,0.929252
-0.424781,0.541137
-0.246431,0.731418
0.683068,-0.402500
0.221383,-0.020636
0.332969,0.956465
0.398258,-0.865605
-0.071418,-0.925889
0.356848,-0.496108
0.340472,0.419088
0.853410,-0.673563
-0.439083,-0.572596
0.318572,0.585600
0.409143,0.617546
0.692537,-0.461494
-0.813916,0.391177
-0.532242,-0.238697
-0.067686,0.221327
-0.507279,-0.384618
0.818827,0.714104
0.594746,0.151796
0.670569,-0.006996
0.286191,-0.400850
0.067115,-0.356961
0.103043,-0.592413
-0.937873,-0.043548
-0.265976,-0.376956
0.383857,-0.947404
-0.791356,-0.207000
0.670141,0.901181
0.331505,0.856225
0.292358,0.799263
-0.382472,-0.775328
0.020591,0.110249
-0.159946,-0.160582
-0.175647,-0.565199
0.991214,-0.505078
0.427804,0.277405
0.094072,-0.505081
0.920444,-0.802885
-0.097494,0.982571
0.153567,0.636530
-0.394385,-0.462576
0.689126,-0.185740
0.330424,0.359267
-0.284559,-0.338071
0.215493,-0.992201
-0.538808,0.833021
-0.767529,0.481783
-0.056730,0.072526
-0.678799,0.767622
0.507326,-0.687585
-0.737456,-0.064869
0.589820,0.356616
0.430050,0.510264
0.553731,-0.667444
0.492835,-0.292702
0.969086,-0.901550
0.244722,0.658212
-0.087290,-0.424854
0.017480,0.628151
0.237075,-0.767028
0.635950,0.698268
-0.934007,0.868421
0.180051,0.009263
-0.059054,0.501252
-0.223115,-0.551728
0.813667,0.039429
0.383403,0.403486
-0.603955,-0.186547
-0.086250,0.949776
0.146009,-0.593415
-0.342926,0.115095
-0.494965,0.901797
-0.226692,0.417745
-0.523057,0.790787
0.045896,0.714018
-0.976240,-0.318154
0.412286,-0.910247
-0.449734,-0.407663
0.099015,0.491213
-0.906411,0.875900
0.939485,0.907256
-0.084671,0.322888
0.310742,0.311374
-0.863659,-0.775508
0.261150,0.282350
-0.368923,0.918224
-0.602554,0.136113
0.820020,0.170753
-0.446142,-0.703037
-0.038459,0.599754
-0.989018,-0.014699
-0.718400,0.423268
0.075053,-0.168134
-0.984395,-0.825931
-0.676921,-0.890806
-0.950031,-0.737436
-0.983550,-0.034702
0.585452,0.327192
-0.723329,0.721793
0.551685,0.537821
0.004144,-0.817238
0.456045,0.401589
0.318875,0.276065
-0.427658,0.872733
0.573029,0.533883
0.472487,0.584010
-0.480816,0.754087
0.007278,0.594237
-0.414047,0.022883
0.768306,-0.090968
0.132077,0.818274
0.171596,0.148527
-0.216428,-0.242951
-0.524281,0.060243
-0.521158,-0.972596
-0.401936,0.482985
-0.789834,-0.945891
-0.115425,0.529041
0.330174,0.456917
0.401774,-0.096797
-0.009200,-0.125738
-0.512787,0.509984
-0.371651,0.494491
0.104221,0.214302
-0.482626,-0.127474
-0.876665,0.649451
-0.309199,0.294931
-0.202022,0.474373
-0.948021,0.273697
-0.465384,-0.469179
0.301102,0.132680
-0.986193,0.511268
0.186789,-0.101619
0.040309,-0.483037
-0.644702,-0.557917
0.420166,0.346098
0.316345,0.907379
-0.143918,0.944694
0.401870,0.960302
0.158996,0.919244
-0.167172,0.282331
0.568695,0.523629
-0.422738,-0.633327
-0.001998,-0.370759
0.640370,0.532617
0.160062,-0.058528
-0.334702,0.173869
-0.547260,0.852087
-0.927750,0.493049
-0.630950,-0.572452
0.935132,0.789217
0.773646,0.251477
0.696596,-0.370272
0.196171,0.098466
-0.409970,-0.644833
0.017710,0.422859
0.637498,-0.413595
-0.053512,-0.785240
-0.046922,0.944489
-0.155999,-0.406552
0.477107,-0.995937
0.534920,-0.857596
0.177932,0.987660
0.994491,0.250182
0.480708,-0.636458
0.677730,0.415840
-0.847242,0.451377
-0.332683,0.849354
-0.918896,0.863488
-0.052180,-0.328865
-0.781344,0.965530
-0.906007,0.856154
-0.448065,0.040481
-0.929087,0.505013
-0.015030,-0.085086
-0.901539,-0.537923
-0.081024,0.633380
-0.395518,-0.903092
0.621040,-0.401027
0.347090,0.101748
-0.037486,0.024820
-0.482412,0.115273
-0.523803,0.184906
-0.035373,-0.442699
0.048394,0.912446
0.228436,0.267050
0.877976,0.322429
0.123204,-0.570089
-0.637090,0.194117
0.934924,0.347881
-0.890970,-0.966616
0.809958,0.028007
0.666765,-0.585561
0.124915,0.287805
0.013412,-0.527995
-0.610447,0.975927
0.496826,-0.092859
0.091199,0.973023
-0.907953,-0.944174
-0.469676,0.140442
0.968272,0.758760
-0.592508,0.846249
0.081190,0.530695
-0.723840,0.444100
-0.275188,-0.788916
-0.208020,-0.166158
-0.755532,-0.398062
0.861849,0.911233
0.016378,-0.013236
0.199038,-0.970210
0.458769,0.588590
-0.994283,-0.044405
-0.504269,0.096916
-0.071382,-0.412221
0.152742,0.458942
0.728220,0.121015
0.217703,-0.864288
-0.032736,-0.701108
0.666407,0.243424
0.742992,-0.608781
0.454508,-0.465028
0.225061,0.698976
0.136910,0.086910
0.610209,-0.846712
-0.926326,-0.190753
-0.816922,0.532443
-0.602163,-0.811205
-0.511962,-0.106432
0.285711,0.416656
0.481347,-0.561546
-0.124401,0.209567
0.559469,-0.906699
0.345279,-0.473267
-0.607807,0.011686
0.770157,-0.864815
0.402904,0.224665
-0.329843,-0.372035
-0.076359,0.807067
0.714875,-0.466150
0.960355,0.788549
0.343097,-0.856567
0.320992,0.740934
-0.667772,0.809030
-0.365498,0.617940
0.225687,-0.884151
-0.943606,-0.898715
0.325416,0.615863
-0.805413,-0.329305
-0.857405,-0.413220
0.682381,0.912752
-0.278035,0.085285
0.137417,0.392122
0.713250,-0.938943
0.199190,0.428125
-0.405093,0.159545
0.216674,0.938004
0.302978,-0.462334
0.678937,0.635207
-0.653304,-0.686561
0.253147,0.572383
-0.570712,0.309540
0.673668,0.754704
-0.074597,0.868255
-0.574601,0.067998
-0.544965,-0.892220
-0.019250,0.177000
0.193065,-0.881833
-0.430878,-0.093685
-0.820776,0.768312
-0.665560,-0.225869
-0.072143,0.551114
-0.287865,-0.769165
-0.911221,-0.608928
0.866042,-0.564525
-0.295489,0.119189
-0.992142,0.133800
-0.571271,0.681526
-0.111496,0.354132
0.549781,0.313904
-0.577870,-0.995184
0.421684,0.402880
0.181816,-0.385251
0.521046,0.750939
0.521064,0.700270
0.519250,0.855503
-0.525599,-0.552893
0.406617,0.186536
-0.322057,0.495396
0.577608,-0.456015
0.930871,-0.717880
0.663173,0.938729
0.415919,-0.908098
0.620256,-0.695577
0.446034,0.170037
0.618327,0.868164
0.174854,0.040010
0.271044,-0.643330
0.654759,-0.207910
-0.892391,0.175823
-0.507640,0.626859
0.031326,-0.033239
-0.926034,-0.562057
-0.846703,-0.248091
0.933339,0.730906
0.295894,0.864211
-0.986975,-0.040933
0.802940,0.428944
0.050969,0.423196
0.733368,-0.502997
-0.406767,0.351695
-0.634833,0.768087
-0.608295,0.636211
-0.875243,-0.953536
-0.571699,-0.767634
0.222287,-0.079339
0.859225,-0.746387
0.887422,0.933191
-0.308444,-0.959281
-0.314900,-0.375105
0.771625,0.980994
-0.510894,0.784650
-0.059939,-0.707954
0.213595,0.991031
0.715242,-0.053038
-0.511966,-0.691525
-0.701343,-0.146799
-0.923438,-0.309638
-0.510588,-0.798681
-0.263174,-0.082288
-0.566316,0.959113
0.838373,-0.707091
-0.787274,0.725795
-0.773900,-0.095718
0.766514,-0.088800
0.529178,0.538139
-0.107806,-0.981716
0.322789,0.832255
-0.689670,-0.463616
0.823286,-0.974429
0.483346,-0.688680
-0.665954,0.782003
0.164521,-0.589392
-0.527634,0.653932
-0.388073,0.209192
-0.428356,0.045611
0.168305,-0.589983
0.338520,0.381031
-0.864188,0.564620
-0.714686,0.902326
-0.524180,0.814491
0.440466,0.368014
0.832775,-0.236745
0.200269,-0.856895
0.299639,0.023555
-0.831324,-0.217014
0.334875,-0.497278
-0.435011,-0.500605
-0.086669,0.037355
-0.846673,0.525257
-0.753453,-0.275028
-0.429132,0.414852
0.134989,0.909388
-0.204117,0.270801
0.474007,0.081197
0.173128,0.949827
-0.104312,-0.386407
0.317841,-0.271537
0.376849,-0.481890
-0.128432,-0.323512
0.541665,0.040244
0.459473,-0.123460
0.542967,-0.975537
0.375935,-0.543703
0.061817,0.529262
0.981554,0.308364
-0.745766,-0.447578
-0.276784,0.389223
-0.538190,0.519099
-0.339976,0.935817
-0.399704,0.833152
0.885644,0.495984
-0.553254,0.203485
-0.775553,0.823594
0.721595,0.096015
-0.499918,0.263260
-0.863741,0.959556
-0.860200,0.679226
0.984018,0.515735
-0.864477,0.045835
0.044997,-0.882922
-0.645801,0.299232
-0.330500,0.077415
-0.311545,0.131310
-0.403487,0.348479
0.067127,0.196809
0.181631,-0.047229
-0.307207,0.628377
-0.843744,-0.082760
0.451971,0.877851
-0.986745,0.952053
0.141111,-0.850486
0.911609,0.280911
0.828741,0.895627
-0.203354,0.964264
-0.058538,0.841643
-0.918659,0.295661
0.140875,-0.249159
-0.626924,0.829330
0.882151,-0.030410
0.177809,-0.050722
-0.833601,-0.640560
0.902049,-0.140808
0.987817,-0.941696
0.776432,0.439789
0.936155,0.789687
0.391842,0.077266
0.939201,0.303451
-0.641823,0.767942
0.199078,0.154823
0.732206,-0.859460
-0.003533,0.813547
0.436202,-0.862659
-0.435612,0.809278
0.966671,-0.553460
-0.221132,0.144480
0.395817,-0.054733
0.503920,0.297866
0.804458,0.491738
0.356170,0.580890
-0.068473,0.292325
0.370576,-0.676631
-0.630409,0.309778
0.626820,-0.272231
0.077719,-0.174102
0.882592,-0.190075
-0.033562,-0.120942
-0.376528,-0.597360
0.016400,0.187861
-0.788082,-0.016929
0.634400,-0.009215
-0.872449,0.030217
0.936052,0.631471
-0.671917,0.740510
0.123209,0.684254
0.321400,-0.945264
-0.023421,-0.308024
-0.621895,0.346170
-0.998246,-0.995075
-0.926061,0.079473
-0.169178,0.956531
0.889398,0.797260
-0.164411,-0.487130
-0.800100,0.851988
0.700731,-0.588183
-0.164941,0.335131
0.402603,-0.037390
-0.634652,0.338654
-0.405919,-0.306568
0.079164,0.717290
-0.622315,-0.599436
0.772026,0.354264
0.092540,-0.849869
-0.299566,0.094294
-0.844944,-0.225627
-0.826232,-0.014122
-0.269096,-0.936834
-0.216862,0.566492
-0.423964,-0.016962
0.418481,-0.723233
0.394855,-0.746460
0.611898,-0.202543
0.216150,0.977246
-0.863888,0.810231
-0.329322,0.215276
0.527521,0.048364
0.615841,0.299547
-0.597372,-0.291619
0.449678,0.103062
0.802675,0.604734
0.877436,0.976443
-0.409388,-0.391661
-0.960391,0.373750
-0.825168,-0.384355
-0.643213,0.593313
-0.107588,0.751642
0.846853,-0.495690
-0.450901,0.063002
-0.518444,-0.314789
-0.126767,0.152234
0.900488,-0.599246
-0.799402,0.516328
0.700302,-0.396774
-0.775291,0.149980
0.706288,-0.972615
-0.245286,0.583724
-0.996172,0.345326
-0.807937,-0.956564
-0.280924,-0.633105
-0.340919,0.075863
0.960207,0.551493
-0.172495,0.807060
-0.944198,0.376604
-0.129938,-0.462642
-0.938185,0.743296
0.689593,0.962303
-0.855950,0.890191
0.478631,0.844352
-0.506584,0.703340
-0.005668,-0.800296
0.730725,0.749046
0.783428,0.734553
0.094372,0.975491
0.777989,0.813448
-0.657615,-0.562929
-0.110689,-0.697407
0.988563,0.716815
-0.890347,-0.955634
0.093419,-0.020285
-0.418276,0.155234
-0.276990,-0.728683
0.117537,-0.132940
-0.838493,-0.403832
-0.288588,-0.345076
-0.700492,0.705744
-0.145372,-0.969766
0.454790,-0.361944
0.764787,-0.450838
-0.386454,0.542776
-0.637390,-0.044068
0.979846,0.251921
0.258525,0.968410
-0.031264,0.368177
-0.987224,-0.937845
-0.652108,-0.405500
0.217389,0.070903
-0.134183,-0.665074
0.937963,0.027324
-0.068906,-0.350625
0.682247,0.230602
-0.644881,-0.463125
0.260836,0.809909
0.174931,0.025622
-0.640928,0.788477
-0.431602,-0.278318
-0.255591,-0.451755
0.973603,-0.997066
-0.483345,-0.057661
0.371111,-0.470570
0.004494,0.719003
0.123930,-0.778117
-0.210094,0.989747
-0.443191,-0.272131
0.017070,0.487903
0.377244,-0.300682
-0.281495,0.732363
0.236193,0.979340
0.542272,-0.588876
0.004963,0.901344
-0.800399,0.573361
-0.376974,-0.055989
-0.878394,-0.403372
-0.053055,-0.361740
0.538967,-0.681944
0.167691,-0.456539
-0.962941,-0.708379
-0.234657,-0.173035
-0.718633,0.322152
0.554834,0.298438
-0.189945,-0.067922
0.997755,0.528559
-0.335559,0.233948
0.507900,-0.793286
0.645072,-0.487137
-0.891943,0.844674
-0.913776,-0.268917
-0.211315,-0.792170
0.327712,0.735629
-0.153910,-0.133321
-0.946315,-0.986219
