0.491615,0.437210
0.910482,0.126686
0.593757,0.014024
0.317301,0.434817
0.761501,0.714960
0.662920,0.518912
0.421013,0.528837
0.384456,0.820395
0.510121,0.003785
0.480979,0.991404
0.621063,0.572496
0.185147,0.050552
0.584148,0.787269
0.042839,0.240507
0.150746,0.241068
0.628894,0.642362
0.678278,0.539376
0.769047,0.272034
0.553400,0.086349
0.706851,0.314901
0.801309,0.369771
0.833814,0.222322
0.898609,0.218270
0.042717,0.408729
0.222055,0.523696
0.400134,0.843118
0.096192,0.585281
0.893670,0.680340
0.372550,0.936509
0.920848,0.523297
0.177577,0.549741
0.165658,0.855854
0.089117,0.934706
0.127888,0.642518
0.021054,0.834740
0.957419,0.822363
0.204511,0.791233
0.044685,0.103120
0.009503,0.087402
0.511849,0.231558
0.611099,0.911982
0.074676,0.707291
0.497263,0.968347
0.387631,0.869814
0.904856,0.308479
0.393111,0.082433
0.858220,0.558769
0.938287,0.947337
0.493475,0.066175
0.589855,0.514529
0.900915,0.547274
0.336892,0.105427
0.338507,0.381578
0.208546,0.348010
0.468980,0.720395
0.579568,0.080079
0.632378,0.654244
0.787370,0.129641
0.622591,0.175001
0.999455,0.527447
0.483480,0.392566
0.609880,0.341700
0.951335,0.548167
0.289037,0.444809
0.614342,0.878892
0.959338,0.515257
0.426167,0.296231
0.620684,0.764673
0.677808,0.829230
0.112683,0.146788
0.549625,0.692251
0.226867,0.182003
0.346495,0.014237
0.311644,0.969086
0.189238,0.311099
0.496533,0.672717
0.703665,0.106413
0.014417,0.655000
0.654579,0.303455
0.099809,0.268921
0.182347,0.059147
0.784179,0.608514
0.355378,0.404863
0.373187,0.033186
0.234093,0.485870
0.179975,0.783718
0.178121,0.406841
0.965721,0.524616
0.421078,0.277366
0.493702,0.610316
0.588465,0.990235
0.283033,0.292129
0.096648,0.297450
0.947129,0.751227
0.600905,0.046938
0.020149,0.783253
0.106085,0.804327
0.391767,0.461463
0.209190,0.764954
0.494650,0.443283
0.250824,0.674624
0.227002,0.428946
0.081466,0.192723
0.953562,0.502544
0.470089,0.447264
0.112859,0.058553
0.437499,0.395892
0.350683,0.534147
0.693343,0.297812
0.285374,0.294248
0.344750,0.305522
0.077501,0.450835
0.109850,0.469267
0.912298,0.319040
0.234221,0.406948
0.762323,0.485046
0.081572,0.989324
0.913991,0.163038
0.182047,0.867553
0.665582,0.652136
0.314817,0.778441
0.710689,0.752316
0.174333,0.061372
0.286462,0.867676
0.359184,0.571836
0.161924,0.703933
0.877358,0.239425
0.154768,0.987208
0.708692,0.067067
0.306247,0.942914
0.474015,0.068570
0.427960,0.555587
0.057894,0.341951
0.718625,0.239941
0.209504,0.384207
0.892077,0.524321
0.162648,0.602766
0.276637,0.336981
0.664138,0.563099
0.204657,0.023322
0.134935,0.366581
0.727255,0.012293
0.606005,0.882023
0.999500,0.314698
0.949090,0.305747
0.257611,0.423105
0.374317,0.685571
0.978692,0.432212
0.027522,0.697317
0.672153,0.237026
0.081523,0.564230
0.761347,0.244171
0.166997,0.037983
0.581152,0.831135
0.601082,0.785808
0.854457,0.736017
0.152389,0.581712
0.748309,0.758394
0.463735,0.747809
0.073092,0.412825
0.053557,0.330704
0.835929,0.427874
0.016275,0.814621
0.860086,0.043797
0.511937,0.532239
0.280823,0.593461
0.096469,0.042170
0.837631,0.263466
0.080153,0.418783
0.094601,0.681235
0.204591,0.949057
0.417252,0.356980
0.530769,0.165561
0.115374,0.994504
0.913371,0.188467
0.407328,0.966927
0.519170,0.243258
0.394802,0.535445
0.057878,0.254887
0.579242,0.569816
0.787126,0.860064
0.163276,0.883595
0.902234,0.000908
0.147060,0.982387
0.419690,0.241661
0.663623,0.624282
0.190718,0.080875
0.981262,0.721487
0.246436,0.096636
0.715991,0.159807
0.285103,0.123319
0.126734,0.804273
0.366577,0.521536
0.339718,0.424455
0.776423,0.918960
0.994271,0.563549
0.779024,0.157547
0.447143,0.681258
0.158455,0.594204
0.663645,0.578146
0.835865,0.327268
0.202427,0.026583
0.408142,0.183689
0.748070,0.654578
0.280325,0.464061
0.814385,0.565428
0.587380,0.941119
0.369701,0.953957
0.462655,0.709418
0.378412,0.239077
0.628378,0.372683
0.802626,0.407402
0.530230,0.249769
0.088660,0.688685
0.843973,0.752305
0.266831,0.679838
0.079573,0.469258
0.706421,0.487716
0.652946,0.454491
0.142294,0.933271
0.918552,0.956679
0.498699,0.505932
0.897798,0.868399
0.459888,0.360452
0.577818,0.838300
0.599530,0.206196
0.210983,0.402156
0.613598,0.741213
0.651925,0.702258
0.429898,0.495898
0.454563,0.696729
0.175736,0.534136
0.165987,0.882158
0.021851,0.818933
0.336649,0.164145
0.752204,0.255201
0.120824,0.250903
0.761133,0.018622
0.119303,0.221021
0.379074,0.697121
0.059321,0.978604
0.903316,0.270304
0.380760,0.516914
0.011517,0.032685
0.219171,0.441415
0.528583,0.673734
0.138144,0.704320
0.207870,0.304130
0.586478,0.229722
0.123063,0.923126
0.393867,0.875268
0.178327,0.514691
0.126171,0.939460
0.533313,0.245474
0.160481,0.912387
0.942594,0.219802
0.890991,0.845911
0.490106,0.271751
0.362825,0.501623
0.304436,0.581996
0.943038,0.833020
0.255730,0.081182
0.537340,0.463600
0.385312,0.123817
0.693322,0.508376
0.046944,0.087189
0.383644,0.225271
0.601880,0.509815
0.164731,0.135193
0.755288,0.325212
0.047580,0.697883
0.545014,0.938571
0.543794,0.035120
0.210322,0.906618
0.536743,0.514758
0.488614,0.479782
0.347777,0.744345
0.560963,0.885117
0.207945,0.946276
0.008934,0.901267
0.454651,0.055878
0.988456,0.838295
0.281148,0.590336
0.348109,0.445879
0.725528,0.103398
0.771092,0.773108
0.801281,0.316106
0.711679,0.345074
0.351226,0.922001
0.251693,0.887970
0.436759,0.740307
0.367751,0.784536
0.484652,0.928715
0.669653,0.692597
0.874990,0.678587
0.593864,0.329641
0.734464,0.582320
0.167936,0.015613
0.172656,0.516046
0.461492,0.898185
0.619443,0.232584
0.671293,0.420724
0.548690,0.382972
0.765798,0.899916
0.304972,0.017491
0.787886,0.741731
0.757798,0.155637
0.526267,0.242450
0.084352,0.195920
0.935047,0.959342
0.874506,0.528911
0.288984,0.608971
0.111232,0.456920
0.624583,0.283888
0.972966,0.086075
0.182072,0.592409
0.318659,0.853365
0.013133,0.867349
0.236337,0.778932
0.767265,0.541309
0.796423,0.555151
0.283040,0.554221
0.710788,0.809307
0.796671,0.795140
0.005226,0.731718
0.754483,0.879733
0.260629,0.043467
0.488703,0.371861
0.500387,0.113287
0.655748,0.473353
0.199362,0.837821
0.065762,0.518021
0.691186,0.078895
0.385370,0.927522
0.857826,0.152635
0.468831,0.654249
0.707786,0.751871
0.208470,0.418574
0.561178,0.005141
0.213715,0.566404
0.736859,0.968198
0.446137,0.997488
0.011665,0.934840
0.369349,0.512052
0.048127,0.025097
0.985404,0.247489
0.862918,0.051166
0.765511,0.554103
0.130061,0.150881
0.481625,0.987887
0.303516,0.950456
0.642136,0.011302
0.702327,0.850606
0.429877,0.263505
0.855747,0.643592
0.829909,0.592605
0.611790,0.276046
0.590093,0.623455
0.210886,0.959442
0.135506,0.259013
0.984539,0.120911
0.506503,0.847456
0.172077,0.272013
0.401560,0.302138
0.422894,0.883185
0.290025,0.726411
0.833641,0.932161
0.737713,0.535968
0.782768,0.167590
0.799473,0.638515
0.811182,0.629382
0.231120,0.422972
0.905428,0.821213
0.046426,0.116314
0.780655,0.181933
0.375327,0.765194
0.302843,0.881829
0.612650,0.474920
0.153843,0.014210
0.777057,0.576737
0.897395,0.067082
0.303148,0.731036
0.999244,0.040861
0.267004,0.782012
0.208451,0.066477
0.420526,0.019633
0.695858,0.651647
0.442605,0.601286
0.472860,0.489031
0.717599,0.253515
0.670964,0.092926
0.018709,0.973807
0.974756,0.631360
0.448727,0.128598
0.645569,0.225785
0.705335,0.542964
0.292867,0.008483
0.273999,0.292111
0.049344,0.541003
0.074123,0.257795
0.607480,0.494649
0.277429,0.303338
0.146296,0.720034
0.904624,0.619156
0.209065,0.622223
0.872671,0.880029
0.715150,0.891381
0.853836,0.689905
0.522740,0.302563
0.818504,0.168309
0.528348,0.523839
0.711273,0.821215
0.532322,0.985273
0.113326,0.581667
0.526276,0.187448
0.839462,0.133756
0.682098,0.116891
0.437094,0.828393
0.836924,0.341718
0.447549,0.045990
0.963941,0.320221
0.926019,0.679091
0.211601,0.779855
0.368996,0.734341
0.082418,0.187500
0.902651,0.610766
0.711339,0.613924
0.431981,0.243661
0.599197,0.545307
0.825328,0.125473
0.732755,0.664790
0.259229,0.414853
0.781681,0.696322
0.243246,0.618605
0.038040,0.690795
0.664595,0.001981
0.011016,0.590613
0.681072,0.222617
0.370468,0.050069
0.956958,0.452886
0.237569,0.859609
0.063652,0.948907
0.473533,0.495633
0.192569,0.072730
0.040940,0.017897
0.198203,0.773695
0.682687,0.457431
0.188547,0.464367
0.153754,0.431793
0.082973,0.191794
0.122588,0.747568
0.193775,0.133604
0.338181,0.874848
0.356221,0.708649
0.924916,0.313179
0.161536,0.162485
0.172788,0.225188
0.111392,0.646320
0.720822,0.303961
0.719050,0.761761
0.321858,0.917253
0.535456,0.004544
0.374684,0.724004
0.468912,0.528438
0.155797,0.551885
0.720232,0.278386
0.299452,0.914007
0.411990,0.637633
0.788855,0.768211
0.346282,0.713772
0.081389,0.507818
0.876257,0.254177
0.733006,0.987649
0.900497,0.453828
0.291610,0.619547
0.215589,0.613468
0.536800,0.751046
0.618013,0.911484
0.475049,0.086925
0.439922,0.630847
0.638809,0.160154
0.909232,0.938261
0.074162,0.321222
0.575894,0.863017
0.089432,0.922177
0.576789,0.170822
0.429995,0.453046
0.424999,0.163001
0.440695,0.325496
0.616829,0.732305
0.945044,0.832419
0.345773,0.481844
0.583464,0.963786
0.393328,0.058514
0.050710,0.833250
0.689361,0.689520
0.993405,0.598593
0.627781,0.067566
0.919815,0.203675
0.930583,0.009247
