\begin{thebibliography}{1}

\bibitem{ohmoto}
大本公式日本語サイト.
\newblock \url{http://oomoto.or.jp/wp/} 2018年2月20日閲覧.

\bibitem{budotraining}
植芝守高.
\newblock 武道練習.
\newblock 1933.

\bibitem{budo}
植芝守高.
\newblock 武道.
\newblock 1938.

\bibitem{120005641396}
パイエ由美子.
\newblock Ueshiba's aikido ideology : the early period.
\newblock 同志社大学日本語・日本文化研究, No.~12, pp. 131--161, mar 2014.

\end{thebibliography}
