学籍番号:201311350
名前:河原 悟
演習番号:9

<内容>
課題9-1を実行した結果を以下に示す｡

stop at pc=0x8048482 ...
eax=0x00400124, ebx=0x0166a3da, ecx=0x00400124, edx=0x0166a3da
esi=0x00000000, edi=0x08048330, ebp=0xff9c7cd8, esp=0xff9c7cb8


<内容>
課題9-2を実行した結果を以下に示す｡

stop at pc=0x8048437 ...
eax=0x00000037, ebx=0xf778d000, ecx=0xca71c67f, edx=0xffd97cf4
esi=0x00000000, edi=0x08048330, ebp=0x00000000, esp=0xffd97cc8

