1 [====] pp106-112.
6 [====] 5
1 [====] No.
1 [====] 39,
1 [====] 1996,Vol.
3 [====] May
1 [====] CACM,
1 [====] Dream,"
1 [====] Possible
70 [====] The
1 [====] Dream
1 [====] "To
1 [====] Reddy,
1 [====] [17]	Raj
1 [====] http://www.lesk.com/mlesk/ksg97/ksg.html
1 [====] world?"
479 [====] the
119 [====] in
22 [====] there
216 [====] is
28 [====] information
28 [====] much
2 [====] "How
1 [====] Lesk,
1 [====] [16]	Micheal
1 [====] 046509144X.
3 [====] ISBN:
2 [====] 1995,
1 [====] Books,
2 [====] Basic
1 [====] Access
2 [====] Public
247 [====] to
1 [====] Privacy
1 [====] From
1 [====] Information?:
1 [====] Owns
1 [====] Who
1 [====] Wells-Branscomb,
1 [====] [15]	Anne
2 [====] http://www.theatlantic.com/unbound/flashbks/computer/bushf.htm
1 [====] 1945,	
1 [====] July
2 [====] Monthly,
2 [====] Atlantic
2 [====] Think"
14 [====] We
2 [====] "As
7 [====] Bush
1 [====] [14]	Vannevar
1 [====] http://rits.stanford.edu/siliconhistory/Bush/Bush_text.html
7 [====] online
1 [====] 1990,
3 [====] Report
1 [====] Foundation
7 [====] Science
4 [====] National
75 [====] as
1 [====] Reprinted
1 [====] 1945.
1 [====] Office,
1 [====] Printing
4 [====] Government
1 [====] U.S.
1 [====] D.C.:
1 [====] Washington,
1 [====] Welfare,"
325 [====] and
70 [====] on
2 [====] Committee
221 [====] of
1 [====] "Report
1 [====] 3,
1 [====] Appendix
1 [====] Frontier,
2 [====] Endless
1 [====] Science-The
3 [====] Bush,
1 [====] [13]	Vannevar
1 [====] 0-684-82821-9
1 [====] 1997
4 [====] Press,
1 [====] Free
1 [====] Zachary,
1 [====] Pascal
1 [====] G.
1 [====] Century,
3 [====] American
1 [====] Engineer
4 [====] Vannevar
1 [====] Frontier:
1 [====] [12]	Endless
1 [====] http://www.frc.ri.cmu.edu/~hpm/book98/com.ch1/vinge.singularity.html
24 [====] at
14 [====] also
2 [====] 1993.
1 [====] March,
1 [====] Institute,
1 [====] Aerospace
1 [====] Ohio
1 [====] Center
14 [====] Research
4 [====] Lewis
1 [====] NASA
45 [====] by
1 [====] sponsored
1 [====] Symposium
1 [====] VISION-21
1 [====] Singularity."
1 [====] "Technological
1 [====] Vinge,
1 [====] [11]	Vernor
3 [====] proof
1 [====] "manual"
293 [====] a
55 [====] has
1 [====] (1995)
1 [====] http://www.math.gatech.edu/~thomas/FC/fourcolor.html
1 [====] 108-121,	
1 [====] 1977,
1 [====] Oct
1 [====] American,
2 [====] Scientific
1 [====] problem,"
1 [====] four-color-map
3 [====] solution
1 [====] "The
1 [====] Haken,
1 [====] W.
1 [====] Appel
1 [====] K.
1 [====] sites.
18 [====] many
15 [====] web
1 [====] Also
1 [====] 1950).
1 [====] 433-460,
1 [====] LIX.
2 [====] Vol.
2 [====] Mind,
1 [====] Intelligence",
2 [====] Machinery
2 [====] "Computing
1 [====] Turing,
1 [====] M.
1 [====] [9]	Alan
1 [====] 420-423
2 [====] pp
1 [====] 0262610795,
1 [====] 1990,ISBN:
1 [====] MIT
1 [====] Machines,
1 [====] Intelligent
1 [====] Age
1 [====] Kruzweil,
1 [====] R.
4 [====] appears
1 [====] Tales,"
1 [====] "Fairy
1 [====] Newell,
1 [====] [8]	Alan
1 [====] 62-63
1 [====] 152(4),
1 [====] 6/26/97,
1 [====] News,
1 [====] Dust",
1 [====] Smart
1 [====] Micro-device
1 [====] [7]	"From
1 [====] 0684811073
1 [====] 1996,
1 [====] NY,
1 [====] Schuster,
2 [====] &
1 [====] Simon
1 [====] West,
1 [====] Opening
1 [====] Jefferson,
1 [====] Thomas
1 [====] Lewis,
1 [====] Meriwether
1 [====] Courage:
1 [====] Undaunted
1 [====] Ambrose,
3 [====] E.
1 [====] [6]	Stephen
1 [====] 0-8157-8178-4.
3 [====] ISBN
1 [====] 1997,
1 [====] Brookings,
1 [====] Innovation,
1 [====] Technological
1 [====] Quadrant:
2 [====] Pasteur's
1 [====] Stokes,
1 [====] [5]	Donald
1 [====] VA.
1 [====] Arlington
1 [====] Communications,
1 [====] Information,
1 [====] Computing,
85 [====] for
2 [====] Office
1 [====] Coordination
2 [====] 1999.
1 [====] Feb.
1 [====] President,
1 [====] Committee,
2 [====] Advisory
4 [====] Technology
5 [====] Information
1 [====] President's
1 [====] Future,
1 [====] Our
1 [====] Investing
1 [====] Research:
1 [====] [4]	Information
1 [====] 0-309-6278-0.
2 [====] DC,
2 [====] Washington
2 [====] Academy
1 [====] Research,
3 [====] Computing
3 [====] Support
1 [====] Revolution,
3 [====] Funding
1 [====] [3]	CSTB-NRC
1 [====] 1995.
1 [====] Infrastructure,
1 [====] Nation's
2 [====] Initiative
2 [====] Communications
2 [====] High-Performance
2 [====] Evolving
1 [====] [2]	CSTB-NRC,
1 [====] errors.
26 [====] some
1 [====] corrected
15 [====] data
1 [====] analyze
2 [====] helped
14 [====] who
1 [====] Bell
3 [====] Gordon
45 [====] with
2 [====] communication
8 [====] personal
1 [====] 1969,
3 [====] metric
2 [====] developed
3 [====] Roberts
2 [====] Larry
1 [====] (http://www.frc.ri.cmu.edu/~hpm/book98/)
1 [====] 0-19-511630-5,
1 [====] 1999,
1 [====] Oxford,
1 [====] Transcendent
1 [====] Machines
1 [====] Mere
1 [====] Robot,
1 [====] Moravec
1 [====] P.
1 [====] Hans
5 [====] based
1 [====] [1]	Graph
1 [====] References
1 [====] 7.
3 [====] use.
2 [====] onerous
95 [====] be
34 [====] not
40 [====] should
78 [====] it
8 [====] But
2 [====] specification.
2 [====] incomplete
2 [====] cases
2 [====] exception
41 [====] about
8 [====] questions
2 [====] asking
2 [====] application,
4 [====] reason
40 [====] system
8 [====] 	
2 [====] complete).
2 [====] (is
8 [====] applications
33 [====] all
5 [====] describe
52 [====] can
2 [====] (c)
2 [====] compile,
28 [====] computers
2 [====] (b)
2 [====] easier),
2 [====] (1,000x
2 [====] designs
3 [====] express
24 [====] people
3 [====] easy
3 [====] makes
2 [====] (a)
2 [====] that:
5 [====] interface
3 [====] user
58 [====] or
11 [====] language
3 [====] specification
4 [====] Devise
2 [====] Programmer:
2 [====] 12.	Automatic
1 [====] it).
6 [====] prove
5 [====] (and
5 [====] availability
2 [====] 9's
5 [====] 8
9 [====] --
11 [====] years
4 [====] hundred
26 [====] per
7 [====] second
22 [====] one
31 [====] than
11 [====] less
2 [====] unavailable
166 [====] that
4 [====] Assure
2 [====] 11.	AlwaysUp:
3 [====] it.)
2 [====] stolen
11 [====] cannot
4 [====] users,
2 [====] unauthorized
2 [====] denied
5 [====] service
5 [====] authorized
6 [====] services
11 [====] only
2 [====] 9
14 [====] problem
2 [====] System:
2 [====] 10.	Secure
2 [====] person.
2 [====] part-time
4 [====] single
5 [====] managed
2 [====] administered
6 [====] yet
6 [====] day
15 [====] each
3 [====] millions
10 [====] used
6 [====] Build
2 [====] Systems:
2 [====] 9.	Trouble-Free
3 [====] there.
8 [====] actually
88 [====] are
29 [====] you
5 [====] though
4 [====] environment
5 [====] others
2 [====] interacting
2 [====] (TelePresent):
4 [====] participant
5 [====] place
24 [====] other
10 [====] being
2 [====] simulate
2 [====] participant,
21 [====] well
2 [====] there,
10 [====] see
4 [====] hear
2 [====] (TeleOberserver):
4 [====] observer
32 [====] an
2 [====] retrospectively
2 [====] Simulate
2 [====] 8.	TelePresence:
2 [====] cinema.
2 [====] art,
3 [====] images,
4 [====] music,
6 [====] same
2 [====] Do
4 [====] field.
3 [====] expert
14 [====] human
6 [====] quickly
2 [====] precisely
13 [====] text
4 [====] summarize
7 [====] answer
2 [====] corpus,
5 [====] given
4 [====] Memex:
2 [====] 7.	World
2 [====] request.
3 [====] item
11 [====] any
2 [====] retrieve
2 [====] hears,
3 [====] sees
4 [====] person
14 [====] everything
2 [====] Record
2 [====] 6.	Personal
1 [====] motion.
4 [====] objects
5 [====] recognize
2 [====] person:
2 [====] 5.	See
4 [====] speaker.
4 [====] native
2 [====] Speak
2 [====] speech:
2 [====] 4.	Text
2 [====] Hear
2 [====] text:
2 [====] 3.	Speech
8 [====] time.
4 [====] 30%
4 [====] least
4 [====] game
6 [====] imitation
2 [====] wins
20 [====] computer
2 [====] Test:
31 [====] Turing
2 [====] 2.	The
2 [====] resources.
43 [====] more
4 [====] adding
22 [====] just
2 [====] scaleup),
4 [====] (106x
16 [====] time
4 [====] jobs
5 [====] larger
2 [====] 106
7 [====] doing
2 [====] speedup)
9 [====] faster
2 [====] million,
6 [====] factor
5 [====] grow
7 [====] automatically
4 [====] capacity
5 [====] processing
13 [====] storage
2 [====] application's
3 [====] is,
10 [====] That
2 [====] 106.
5 [====] up
3 [====] scales
3 [====] architecture
6 [====] hardware
12 [====] software
2 [====] 1.	Scalability:
1 [====] Problems.
6 [====] Systems
1 [====] Long-Term
3 [====] Dozen
15 [====] A
3 [====] that.
5 [====] after
2 [====] doublings
1 [====] lots
2 [====] And
1 [====] holds.
5 [====] law
4 [====] Moore's
12 [====] if
2 [====] progress,
3 [====] previous
1 [====] equal
47 [====] will
3 [====] months
6 [====] 18
14 [====] next
12 [====] progress
1 [====] base-technology
1 [====] accelerating:
1 [====] beginning,
2 [====] said
50 [====] I
7 [====] As
1 [====] exciting.
32 [====] very
1 [====] sure
6 [====] am
1 [====] out,
1 [====] turns
12 [====] how
3 [====] matter
1 [====] No
1 [====] safe.
2 [====] fail,
2 [====] never
1 [====] themselves,
3 [====] program
37 [====] they
24 [====] so
1 [====] civilized
2 [====] finally
12 [====] which
8 [====] Babbage's
1 [====] happens,
1 [====] summarizing
1 [====] analyzing,
1 [====] recording,
17 [====] Memex
9 [====] Bush's
1 [====] interface,
1 [====] human-computer
1 [====] improving
9 [====] machines
7 [====] intelligent
9 [====] Turing's
1 [====] categories:
2 [====] broad
1 [====] thee
1 [====] fall
17 [====] problems
1 [====] Turing.
5 [====] Alan
2 [====] envisioned
7 [====] intelligence
11 [====] machine
2 [====] require
4 [====] appear
3 [====] dozen
1 [====] (5)
2 [====] Paradoxically,
6 [====] problems.
26 [====] these
3 [====] substantial
3 [====] made
63 [====] have
6 [====] scientists
3 [====] generations
2 [====] future
7 [====] 50
1 [====] suspect
7 [====] research.
24 [====] long-term
2 [====] invest
7 [====] government
11 [====] want
10 [====] why
2 [====] Now
3 [====] problem.
51 [====] research
4 [====] Each
6 [====] interesting
10 [====] These
1 [====] Summary
1 [====] 6.
1 [====] it's
5 [====] intelligence,
4 [====] right
25 [====] was
31 [====] but
1 [====] system,
5 [====] such
31 [====] we
2 [====] until
3 [====] while
1 [====] Yes,
3 [====] staff.
4 [====] typical
1 [====] dealing
3 [====] no
1 [====] requires
8 [====] better
1 [====] result
1 [====] produce
3 [====] computer,
5 [====] staff
8 [====] programming
1 [====] replace
8 [====] test
4 [====] operational
2 [====] built.
1 [====] application
1 [====] desired
1 [====] Eventually,
2 [====] discussion.
2 [====] built
1 [====] prototype
1 [====] discussion,
12 [====] There
1 [====] design.
5 [====] proposed
3 [====] returns
2 [====] application.
2 [====] describes
5 [====] comes
2 [====] customer
1 [====] gave
52 [====] this
1 [====] essence
24 [====] In
1 [====] three.
19 [====] do
1 [====] none
1 [====] things,
11 [====] three
11 [====] two
5 [====] today
27 [====] systems
1 [====] described.
2 [====] enough
3 [====] powerful
1 [====] (3)
4 [====] language,
1 [====] compile
11 [====] able
3 [====] (2)
1 [====] languages,
5 [====] current
3 [====] easier
14 [====] times
6 [====] thousand
2 [====] level
3 [====] high
3 [====] (1)
9 [====] believe
1 [====] Pit.
2 [====] Tar
7 [====] because
1 [====] soon,
3 [====] too
4 [====] Perhaps
3 [====] needed.
1 [====] approach
17 [====] new
1 [====] entirely
2 [====] pessimistic.
1 [====] fruit,
1 [====] yield
1 [====] approaches
1 [====] software-engineering
1 [====] methodical
1 [====] earlier.
3 [====] mentioned
1 [====] paradigms
1 [====] application-generator
3 [====] fits
11 [====] your
2 [====] unless
1 [====] productivity
4 [====] improvement
1 [====] 1,000
2 [====] certainly
1 [====] 10,
2 [====] perhaps
6 [====] little
2 [====] relatively
30 [====] been
3 [====] report,
1 [====] Sad
9 [====] years.
2 [====] 45
11 [====] last
1 [====] languages
1 [====] Grail
1 [====] Holy
3 [====] Automatic
1 [====] logjam?
2 [====] past
10 [====] get
1 [====] How
1 [====] solution?
14 [====] what
13 [====] So,
2 [====] code.
2 [====] line
1 [====] 100$
8 [====] cost
5 [====] code
4 [====] lines
1 [====] producing
1 [====] Java
2 [====] C++
3 [====] back
1 [====] not,
15 [====] If
1 [====] luck.
8 [====] then
1 [====] paradigms,
2 [====] pre-built
1 [====] tools.
2 [====] using
1 [====] websites
2 [====] impressive
4 [====] create
2 [====] users
1 [====] End
1 [====] reuse.
3 [====] example
1 [====] Again
1 [====] objects.
5 [====] set
1 [====] JavaScript
9 [====] like
1 [====] scripting
1 [====] Often
1 [====] impressive.
1 [====] areas
2 [====] tools
1 [====] tiny.
6 [====] database
1 [====] user-written
1 [====] otherwise.
1 [====] written
17 [====] would
2 [====] fraction
5 [====] small
2 [====] code,
3 [====] lot
4 [====] write
9 [====] still
8 [====] companies
2 [====] applications.
2 [====] semi-custom
3 [====] building
8 [====] large
1 [====] savings
3 [====] enormous
1 [====] PeopleSoft,
1 [====] SAP,
29 [====] from
1 [====] reuse
1 [====] Code
1 [====] successes.
2 [====] big
3 [====] languages.
1 [====] non-procedural
1 [====] high-level
1 [====] moving
1 [====] fewer
3 [====] far
1 [====] worse.
1 [====] worse
1 [====] burden
5 [====] programs
2 [====] cheaper,
4 [====] become
1 [====] news.
1 [====] grim
34 [====] This
2 [====] lifetime.
8 [====] its
3 [====] over
2 [====] maintain
2 [====] support
2 [====] again
3 [====] costs
1 [====] shipped,
1 [====] once
3 [====] Then
1 [====] 150%
26 [====] It
1 [====] line.
1 [====] 20$
1 [====] documenting
1 [====] creating,
1 [====] designing,
1 [====] simple:
1 [====] expensive?
9 [====] could
3 [====] ask
7 [====] might
3 [====] You
1 [====] grows.
1 [====] bugs
1 [====] adds
3 [====] fast,
3 [====] grows
3 [====] product
1 [====] retested.
1 [====] tested
2 [====] bug
1 [====] reliable,
5 [====] really
1 [====] pieces
1 [====] Individual
1 [====] reliable.
1 [====] expensive,
3 [====] getting
12 [====] cyberspace
2 [====] thing
1 [====] write.
4 [====] expensive
1 [====] Software
1 [====] problem:
1 [====] final
4 [====] us
1 [====] brings
1 [====] Programming.
1 [====] 5.3.
1 [====] proof.
4 [====] analysis
1 [====] careful
17 [====] goal
1 [====] achieving
1 [====] test:
3 [====] something
2 [====] Again,
1 [====] fail.
10 [====] when
2 [====] nodes
1 [====] repair
1 [====] failures,
1 [====] mode
4 [====] common
2 [====] avoid
1 [====] diversity
2 [====] design
8 [====] use
1 [====] consistency,
2 [====] manage
6 [====] transactions
1 [====] places,
1 [====] replicate
9 [====] One
1 [====] high.
3 [====] bandwidth
2 [====] cheap
1 [====] achievable
11 [====] seems
4 [====] goal,
1 [====] extreme
1 [====] century.
1 [====] outage
1 [====] expectation
1 [====] 9s:
7 [====] five
1 [====] aim
2 [====] availability.
1 [====] order-of-magnitude
2 [====] 15
7 [====] years,
1 [====] 9s
3 [====] added
1 [====] Nonetheless,
1 [====] time-to-market.
1 [====] emphasis
1 [====] protocols,
2 [====] web,
1 [====] nature
1 [====] fragile
1 [====] due
1 [====] 99%
4 [====] experience
1 [====] uses
1 [====] Web
7 [====] systems.
1 [====] 99.99%
1 [====] 1950s
4 [====] 90%
1 [====] gone
2 [====] available.
3 [====] always
1 [====] attribute
1 [====] against.
1 [====] guarded
2 [====] known
1 [====] threats
1 [====] secure,
3 [====] rest
9 [====] must
2 [====] security
4 [====] where
1 [====] instances
7 [====] those
6 [====] So
1 [====] security.
9 [====] does
2 [====] Unfortunately,
2 [====] system.
1 [====] penetrate
2 [====] team
1 [====] tiger
3 [====] way.
2 [====] unforgeable
1 [====] signed
12 [====] -
1 [====] authenticator
1 [====] scans
1 [====] retinal
2 [====] means
1 [====] physio-metric
3 [====] go
1 [====] insecure.
1 [====] tokens
2 [====] passwords
1 [====] authentication
1 [====] Any
2 [====] user.
1 [====] entering
1 [====] stealing
1 [====] penetrated
16 [====] most
5 [====] here
1 [====] hook
1 [====] authorized.
1 [====] Moreover,
2 [====] uses.
1 [====] deny
1 [====] force
2 [====] nor
2 [====] data,
1 [====] destroy
1 [====] Attackers
1 [====] denied.
1 [====] Service
2 [====] develop
2 [====] designers
8 [====] challenge
3 [====] major
1 [====] continues.
2 [====] trend
1 [====] assets
14 [====] our
1 [====] trust
1 [====] small.
1 [====] dangerously
2 [====] seem
1 [====] keys
1 [====] 512-bit
1 [====] RSA
2 [====] attack
1 [====] mathematical
13 [====] now
1 [====] Chernobyl,
1 [====] Melissa,
2 [====] recently:
1 [====] rash
1 [====] attention.
2 [====] special
2 [====] deserve
1 [====] requirements
1 [====] hiding
9 [====] issues
1 [====] Two
1 [====] Dependable
1 [====] 5.2.
1 [====] like.
2 [====] management,
4 [====] network
1 [====] backups,
1 [====] administration,
1 [====] growth,
1 [====] maintenance,
1 [====] upgrades,
1 [====] required
1 [====] expertise
3 [====] With
1 [====] coverage
1 [====] 24-hour
4 [====] need
1 [====] Currently,
1 [====] tasks.
1 [====] administrative
2 [====] day,
1 [====] serves
1 [====] trouble-free
1 [====] goals:
4 [====] Babbage
6 [====] first
3 [====] suggests
1 [====] automatic.
1 [====] upgrades
1 [====] Hardware
1 [====] mail.
1 [====] arrive
3 [====] modules
3 [====] replacement
1 [====] order
1 [====] itself
1 [====] diagnose
1 [====] breaks,
9 [====] When
1 [====] locations.
3 [====] move
3 [====] computation
1 [====] else,
1 [====] somewhere
1 [====] replicated
2 [====] fails,
6 [====] server
1 [====] in.
1 [====] plugged
1 [====] cluster
4 [====] add
1 [====] arrive,
4 [====] servers.
4 [====] among
12 [====] work
1 [====] distribute
1 [====] rest.
2 [====] budget.
1 [====] polices,
1 [====] goals,
1 [====] manager
1 [====] managing.
1 [====] self
3 [====] experts.
2 [====] management
13 [====] But,
1 [====] business.
9 [====] their
1 [====] content,
1 [====] managing
1 [====] mind
1 [====] servers
3 [====] own
1 [====] People
1 [====] moved.
1 [====] disappeared,
1 [====] complexity
1 [====] extent,
11 [====] To
1 [====] on.
1 [====] depend
1 [====] desktops
1 [====] appliances,
1 [====] hand-held,
3 [====] provide
3 [====] often
1 [====] load,
1 [====] heavier
1 [====] applications,
9 [====] They
1 [====] complex.
1 [====] Server
1 [====] sky?
1 [====] server-in-the
2 [====] manages
1 [====] Trouble-Free
1 [====] 5.1.
1 [====] example.
1 [====] browser
1 [====] WebTVs
5 [====] looking
3 [====] prototypes
1 [====] appliances.
1 [====] towards
5 [====] working
11 [====] vision
1 [====] failed).
10 [====] had
1 [====] appliance
2 [====] old
2 [====] (just
1 [====] sky
1 [====] refreshes
1 [====] plug
1 [====] appliance,
1 [====] buy
1 [====] sky.
1 [====] refreshed
2 [====] problem,
1 [====] lost.
1 [====] mail
2 [====] arrives
3 [====] module
1 [====] mail,
1 [====] Either
1 [====] fix.
1 [====] schedule
1 [====] home"
1 [====] "call
1 [====] repairing,
5 [====] needs
2 [====] data.
1 [====] lose
4 [====] store
1 [====] up,
1 [====] Always
2 [====] work.
1 [====] wants
3 [====] computers,
1 [====] handheld
8 [====] simple
6 [====] For
2 [====] itself.
1 [====] self-organizing
1 [====] Rather,
1 [====] operations
2 [====] pay
1 [====] folks
1 [====] server.
3 [====] thousands
1 [====] tens
11 [====] few
1 [====] workstation,
5 [====] dollars
1 [====] desktop
1 [====] palmtop
4 [====] today.
7 [====] them
1 [====] comparatively
1 [====] owners
4 [====] Computer
1 [====] administration.
1 [====] care-and-feeding
9 [====] year
1 [====] "free"
12 [====] every
3 [====] typically
1 [====] "best"
1 [====] laundry:
2 [====] dirty
1 [====] organization.
1 [====] value
5 [====] real
1 [====] micro-dollars,
1 [====] transmission
4 [====] storage,
1 [====] processing,
1 [====] deflation.
2 [====] bandwidth.
1 [====] apply
1 [====] graphs
2 [====] Similar
1 [====] rules.
1 [====] changes
2 [====] astonishing,
2 [====] performance/price
2 [====] acceleration
6 [====] year.
2 [====] dropped
9 [====] doubling
2 [====] machines,
1 [====] prices
2 [====] lower
2 [====] combination
2 [====] Through
1 [====] scene.
2 [====] came
1 [====] VLSI
1 [====] microprocessors
1 [====] 1985,
1 [====] 2.3
1 [====] transistors
1 [====] tubes
1 [====] shifted
3 [====] computing
1 [====] 1950's,
1 [====] seven
2 [====] doubled
4 [====] performance
1 [====] Their
1 [====] electro-mechanical.
2 [====] mechanical
4 [====] either
6 [====] were
1 [====] 1945,
1 [====] 1890
1 [====] Between
1 [====] forward.
1 [====] Hollerith
1 [====] Herman
1 [====] plotted
1 [====] Bell,
1 [====] corrections
1 [====] (http://www.frc.ri.cmu.edu/~hpm/book98/),
3 [====] site
1 [====] Moravac's
1 [====] Hans'
1 [====] Using
1 [====] level.
2 [====] measured
1 [====] doubling,
2 [====] chip
1 [====] silicon
1 [====] gates-per
1 [====] observation
1 [====] contemporaneous
3 [====] months.
1 [====] observed
1 [====] 1969
1 [====] dollar.
1 [====] bits-processed
3 [====] measures
1 [====] .
1 [====] 		
1 [====] price-performance
6 [====] since
1 [====] changed
10 [====] things
1 [====] charts
3 [====] 1
4 [====] Figure
1 [====] speed,
3 [====] infinite
4 [====] almost
2 [====] free,
2 [====] 1950,
1 [====] perspective
1 [====] cheaper.
3 [====] gotten
3 [====] decade
7 [====] Indeed,
1 [====] Figure1).
4 [====] (see
1 [====] 1899
4 [====] cheaper
3 [====] trillion
2 [====] 1950
10 [====] million
4 [====] 10
1 [====] soon.
1 [====] anytime
2 [====] happen
6 [====] likely
3 [====] Now,
1 [====] bandwidth?
1 [====] infinitely
2 [====] happens
10 [====] What
2 [====] computers.
2 [====] aspect
4 [====] another
3 [====] focus
2 [====] machines.
1 [====] algorithms,
3 [====] computational
3 [====] vision.
3 [====] Certainly
2 [====] do.
2 [====] generally
1 [====] bookkeeping,
1 [====] numbers,
1 [====] tables
1 [====] generating
12 [====] he
2 [====] power
3 [====] Computers
2 [====] realized.
1 [====] 1955,
4 [====] By
1 [====] computations.
6 [====] his
2 [====] him
6 [====] help
1 [====] wanted
4 [====] He
1 [====] patterns.
1 [====] trends
3 [====] compute
1 [====] loved
1 [====] variables.
3 [====] hold
2 [====] memory
1 [====] set,
1 [====] instruction
1 [====] 3-address
1 [====] programs,
1 [====] card
1 [====] punched
1 [====] engine
1 [====] analytical
2 [====] programmable
1 [====] fully
1 [====] well,
1 [====] computations
1 [====] numeric
3 [====] did
1 [====] engine,
2 [====] difference
1 [====] designs,
1 [====] (1791-1871)
4 [====] Charles
1 [====] traditional
1 [====] consider
1 [====] telepresence.
1 [====] everything,
4 [====] recording
1 [====] stuff:
1 [====] heady
2 [====] visions
1 [====] 5.
1 [====] matter."
1 [====] energy
1 [====] Physics
1 [====] electron
1 [====] EE
1 [====] algorithm.
1 [====] byte
1 [====] patent
1 [====] "Computer
1 [====] said:
1 [====] Huffman
1 [====] Dave
2 [====] robot.
7 [====] out
1 [====] left
1 [====] technology.
1 [====] engineering,
2 [====] electrical
1 [====] robot
2 [====] via
4 [====] world
2 [====] interact
3 [====] physically
3 [====] telepresent
1 [====] allowing
1 [====] interest
5 [====] great
1 [====] ones.
4 [====] present
1 [====] students,
1 [====] rapport
1 [====] instructor
1 [====] instructor.
1 [====] classroom
4 [====] students
1 [====] score
1 [====] class
2 [====] taking
2 [====] group
2 [====] Telepresence
1 [====] experience.
1 [====] improved
1 [====] distances
4 [====] long
1 [====] travel
1 [====] present.
4 [====] quality
1 [====] rooms.
1 [====] chat
1 [====] teleconferences,
1 [====] telephones,
2 [====] form
2 [====] exists
3 [====] already
1 [====] Tele-presence
1 [====] Tele-Present.
1 [====] i.e.
4 [====] event,
1 [====] members
4 [====] allow
1 [====] passive.
1 [====] completely
2 [====] today,
1 [====] version
1 [====] low-quality
6 [====] give
2 [====] radio
1 [====] Television
1 [====] interacting).
1 [====] watching,
1 [====] (they
2 [====] passive
1 [====] observers
4 [====] event
1 [====] geared
1 [====] Tele-Observer
3 [====] called
2 [====] allows
1 [====] demand
2 [====] virtual
1 [====] events
7 [====] record
1 [====] progresses.
2 [====] meeting
2 [====] body
1 [====] gestures
1 [====] facial
8 [====] read
2 [====] look
2 [====] sit
1 [====] meeting,
3 [====] business
1 [====] up.
3 [====] close
1 [====] action
2 [====] watching
2 [====] field
1 [====] spectator
1 [====] sporting
2 [====] space.
5 [====] around
1 [====] wander
1 [====] space,
2 [====] anywhere
1 [====] viewer
1 [====] perspective.
2 [====] high-fidelity
2 [====] scene
1 [====] reconstruct
1 [====] angles,
1 [====] reality.
2 [====] possible
1 [====] higher-quality
1 [====] VCR.
1 [====] world's
10 [====] into
6 [====] Internet
1 [====] turning
1 [====] radio-on-demand
1 [====] only,
1 [====] audio
1 [====] television-on-demand;
1 [====] fundamentally
1 [====] space-shifting.
2 [====] valuable
5 [====] even
1 [====] time-shifting
8 [====] find
1 [====] indeed,
2 [====] convenient
1 [====] extraordinarily
1 [====] on-demand.
1 [====] usually
1 [====] "live",
1 [====] Sometimes,
1 [====] institution.
3 [====] recorded
2 [====] lectures
2 [====] listen
1 [====] routinely
1 [====] retrospectively.
1 [====] immediately,
1 [====] observe
1 [====] 4.3
2 [====] human.
1 [====] plays
2 [====] useful
1 [====] simpler
3 [====] probably
2 [====] excellent
1 [====] Complete,
5 [====] AI
2 [====] task.
2 [====] demanding
1 [====] appropriate
2 [====] answers
1 [====] respond
1 [====] interface.
1 [====] forms
2 [====] graphics,
1 [====] gesture,
1 [====] combines
3 [====] natural
1 [====] posed
2 [====] question
2 [====] question,
2 [====] someone
2 [====] information.
1 [====] organize
1 [====] parse
2 [====] case
2 [====] cyberspace.
1 [====] DeVinci's
1 [====] Leonardo
1 [====] copying
1 [====] project
1 [====] exciting
2 [====] Another
1 [====] go.
1 [====] sense
1 [====] cadavers,
1 [====] versions
1 [====] slices
1 [====] millimeter
1 [====] (http://www.nlm.nih.gov/research/visible/visible_human.html),
1 [====] humans
2 [====] visible
1 [====] challenge.
2 [====] items
1 [====] Moving
1 [====] airplane).
1 [====] Brothers
1 [====] Wright
2 [====] (e.g.
1 [====] 3D
1 [====] 140
1 [====] Smithsonian
1 [====] items,
1 [====] graphic
1 [====] 115
1 [====] congress
4 [====] Library
1 [====] imagery.
1 [====] movies,
1 [====] pictures,
2 [====] collection
1 [====] absorb
2 [====] third
1 [====] ...).
1 [====] conversations,
1 [====] (speeches,
2 [====] sounds
3 [====] library
1 [====] digest
4 [====] similar
4 [====] build
1 [====] step
2 [====] obvious
3 [====] text,
1 [====] master
1 [====] Once
1 [====] summarization
1 [====] Britannica,
1 [====] Encyclopedia
2 [====] journals,
2 [====] corpus
1 [====] take
1 [====] task
1 [====] [17].
1 [====] student
1 [====] college
1 [====] (good)
3 [====] end
1 [====] textbook
3 [====] described
1 [====] Reddy
1 [====] Raj
1 [====] presents
1 [====] material
1 [====] analyzes
1 [====] undigested,
1 [====] seen,
2 [====] exactly
1 [====] summarization.
1 [====] sentences.
1 [====] title
1 [====] giving
2 [====] summarization,
1 [====] want.
3 [====] wonderful
1 [====] sometimes
1 [====] frustration:
2 [====] joy
4 [====] both
1 [====] knows
1 [====] engines
2 [====] search
1 [====] Anyone
1 [====] anything?
1 [====] cyberspace,
1 [====] us?
2 [====] lead
3 [====] Where
1 [====] insurance.
5 [====] cents
2 [====] successive
6 [====] year,
1 [====] cents.
2 [====] 25
2 [====] family
3 [====] photo
5 [====] report
1 [====] MB
1 [====] recent
1 [====] plot
1 [====] cemetery
1 [====] lifetime
3 [====] example,
1 [====] inexpensively.
6 [====] ten
1 [====] falling
1 [====] Prices
1 [====] terabyte.
2 [====] k$
10 [====] 100
6 [====] between
1 [====] (disk)
1 [====] on-line
1 [====] (tape)
1 [====] Near-line
1 [====] storage.
3 [====] tape
2 [====] exabytes
2 [====] 1999
2 [====] disk
1 [====] exabyte
1 [====] shipped
10 [====] industry
2 [====] fact
1 [====] An
1 [====] [16].
1 [====] videotapes)
1 [====] surveillance
1 [====] (excluding
2 [====] 20
1 [====] concludes
1 [====] there?"
1 [====] nice
1 [====] Lesk
1 [====] Michael
1 [====] PB
1 [====] (everywhere)
1 [====] broadcasts
1 [====] TV
2 [====] Recording
1 [====] exabyte.
1 [====] thus
1 [====] scanning
1 [====] fidelity
2 [====] 100x
2 [====] sound
3 [====] images
2 [====] preserve
1 [====] Librarians
3 [====] petabytes.
2 [====] total
4 [====] Congress
1 [====] contents
1 [====] digitized
1 [====] consumer-quality
1 [====] short)
3 [====] (most
1 [====] recordings
1 [====] 3.5
7 [====] literature
2 [====] books
1 [====] scanned
1 [====] petabyte.
7 [====] come
1 [====] DVD
1 [====] short).
1 [====] movies
1 [====] 500,000
1 [====] Unicode.
2 [====] petabyte
1 [====] printed
2 [====] megabyte
1 [====] book
2 [====] enough,
1 [====] Interestingly
1 [====] Memex?
1 [====] produced
1 [====] professionally
1 [====] putting
3 [====] World
1 [====] 4.2
5 [====] goal.
1 [====] fascinating
2 [====] presenting
1 [====] organizing,
1 [====] storing,
1 [====] Capturing,
2 [====] better.
3 [====] second.
1 [====] frames
1 [====] TV-quality
6 [====] technology
1 [====] compression
1 [====] offer
4 [====] best
1 [====] terabyte
2 [====] rate
2 [====] keep
1 [====] compression.
1 [====] image
5 [====] huge
2 [====] techniques
3 [====] hand,
3 [====] On
3 [====] rise
3 [====] easily
2 [====] see.
1 [====] stereo
1 [====] definition
5 [====] may
1 [====] course,
2 [====] Of
1 [====] afford.
1 [====] individuals
2 [====] continue
1 [====] (PB)
1 [====] petabytes
1 [====] eight
1 [====] (TB)
1 [====] terabytes
1 [====] 80
1 [====] hundreds
2 [====] visual
1 [====] High
1 [====] economic.
1 [====] decades,
1 [====] beyond
1 [====] Video
1 [====] life.
1 [====] tapes
1 [====] stick
2 [====] now,
5 [====] start
1 [====] disks.
2 [====] modern
2 [====] 2
2 [====] magnetic
1 [====] hear.
1 [====] (GB)
1 [====] gigabytes
1 [====] read,
1 [====] (MB)
1 [====] megabytes
1 [====] 250
1 [====] terabytes.
1 [====] GB.
3 [====] ever
1 [====] video.
1 [====] feasible
3 [====] issues.
1 [====] privacy
1 [====] vigilant
1 [====] bounds.
2 [====] legal
3 [====] within
1 [====] private,
7 [====] make
1 [====] permission
1 [====] approach:
3 [====] conservative
1 [====] takes
1 [====] permission?
7 [====] my
4 [====] without
2 [====] conversation
1 [====] sell
1 [====] Can
1 [====] others?
1 [====] disclose
1 [====] conversation,
2 [====] private
1 [====] ethical
2 [====] difficult
1 [====] raises
1 [====] [15].
2 [====] copyright
1 [====] violate
3 [====] hear,
2 [====] records
2 [====] Since
1 [====] hears.
2 [====] key
1 [====] you.
1 [====] display
1 [====] relevant
1 [====] command,
3 [====] it.
1 [====] safeguards
1 [====] course
1 [====] read.
1 [====] see,
1 [====] box
3 [====] Memex.
1 [====] sixth
1 [====] challenges,
2 [====] Returning
2 [====] Personal
1 [====] 4.1
1 [====] this.
1 [====] ACM's
1 [====] follow
1 [====] societies
3 [====] hope
1 [====] (CoRR).
1 [====] Repository
1 [====] Online
2 [====] site,
1 [====] department's
1 [====] posted
2 [====] articles
7 [====] technical
4 [====] ACM
1 [====] Your
1 [====] publishing.
1 [====] view
1 [====] progressive
1 [====] taken
2 [====] society
1 [====] credit,
1 [====] copyrights.
1 [====] publisher's
1 [====] behind
1 [====] locked
1 [====] corporations,
1 [====] taxpayers
3 [====] paid
3 [====] Much
2 [====] freely
4 [====] scientific
5 [====] mean
2 [====] property,
4 [====] intellectual
1 [====] protect
1 [====] devised
1 [====] schemes
2 [====] solutions
1 [====] resolved,
1 [====] anonymously.
6 [====] property
1 [====] listeners
1 [====] viewers
1 [====] basis.
1 [====] subscription,
1 [====] view,
1 [====] owner
1 [====] table.
1 [====] copy-protect
2 [====] Several
1 [====] assets.
1 [====] electronic
1 [====] browse
1 [====] physical
1 [====] customers
2 [====] Often,
1 [====] collections.
2 [====] access
2 [====] offering
1 [====] libraries
1 [====] preventing
1 [====] Internet,
1 [====] content
1 [====] value"
1 [====] "high
1 [====] retarding
1 [====] latter
1 [====] change?).
1 [====] implications
2 [====] economic
2 [====] (e.g.,
1 [====] trans-national?),
3 [====] under
1 [====] party
1 [====] protection
1 [====] revolve
1 [====] thorny
1 [====] protecting
2 [====] another.
1 [====] advertising
2 [====] indeed
1 [====] consequence,
1 [====] free.
1 [====] otherwise
1 [====] advertising,
1 [====] cluttered
1 [====] anytime.
3 [====] anyone
1 [====] available
1 [====] culture
1 [====] rights.
1 [====] respect
1 [====] currently,
2 [====] Well,
1 [====] Cyberspace?
1 [====] isn't
1 [====] Australia.
1 [====] accessed
1 [====] England
4 [====] document
4 [====] done
1 [====] searches
1 [====] documents.
1 [====] searching
2 [====] reliable
2 [====] easier,
1 [====] faster,
1 [====] predicate.
1 [====] match
1 [====] collections,
2 [====] scan
1 [====] Programs
1 [====] robots.
2 [====] searched
2 [====] migrating
1 [====] rises.
1 [====] space
1 [====] drops
1 [====] Every
1 [====] shoebox.
2 [====] storing
1 [====] printing
2 [====] Similarly,
1 [====] dollars.)
1 [====] versus
1 [====] (ten
1 [====] cabinet
2 [====] file
1 [====] disk,
1 [====] MB)
1 [====] (1
1 [====] letters
1 [====] Today,
4 [====] online.
2 [====] created
8 [====] Most
1 [====] increasingly
3 [====] Still,
2 [====] web.
3 [====] hard
1 [====] limitations:
1 [====] aware
1 [====] wonderful,
1 [====] week.
2 [====] hours
2 [====] visitors
1 [====] 200
1 [====] averages
1 [====] event.
2 [====] actual
1 [====] attendees
1 [====] substantially
2 [====] site.
1 [====] presentations
1 [====] 50,000
1 [====] spent
1 [====] 100,000
1 [====] months,
4 [====] After
1 [====] conference.
2 [====] original
1 [====] visited
1 [====] month,
1 [====] converted
1 [====] conference
1 [====] ACM97
7 [====] part
1 [====] tiny
1 [====] visitors:
1 [====] regular
1 [====] gets
1 [====] protected
1 [====] online,
2 [====] doubles
1 [====] here.
1 [====] later,
1 [====] answers.
7 [====] way
1 [====] effective
1 [====] efficient
1 [====] system"
1 [====] nervous
2 [====] path
2 [====] direct
2 [====] "a
1 [====] casually
1 [====] And,
2 [====] to.
2 [====] spoken
1 [====] type
1 [====] commands,
1 [====] criteria.
1 [====] similarity
1 [====] matched
2 [====] documents
2 [====] finding
1 [====] search",
1 [====] "association
2 [====] postulated
1 [====] challenge,
1 [====] realized
1 [====] users.
1 [====] shared
1 [====] annotated
1 [====] links,
1 [====] annotate
3 [====] addition,
1 [====] references
1 [====] following
1 [====] documents,
1 [====] fed
1 [====] All
1 [====] said.
1 [====] Dictaphone
1 [====] demand,
1 [====] photograph
1 [====] camera
1 [====] integral
1 [====] glasses
2 [====] together.
1 [====] hyper-linked
1 [====] literature,
1 [====] pamphlets,
1 [====] newspapers,
1 [====] books",
4 [====] billion
2 [====] stored
1 [====] desk
1 [====] Memex,
1 [====] article,
1 [====] [14].
2 [====] piece
1 [====] visionary
2 [====] published
1 [====] 1945
2 [====] fifty
1 [====] policy
2 [====] science
1 [====] America's
1 [====] defined
1 [====] [13][14]
1 [====] Frontier
1 [====] wrote
1 [====] ended
1 [====] war
2 [====] Development.
1 [====] ran
1 [====] II,
1 [====] War
1 [====] During
1 [====] MIT.
1 [====] analog
1 [====] technologist:
2 [====] early
1 [====] 4.
1 [====] steps.
1 [====] incremental
1 [====] testable,
1 [====] useful,
1 [====] challenging,
1 [====] understandable,
11 [====] good
1 [====] criterion
1 [====] meet
1 [====] tests
1 [====] four
1 [====] agree
1 [====] remember
2 [====] better,
1 [====] them.
4 [====] communicate
1 [====] intrusive
7 [====] people.
1 [====] revolutionize
1 [====] audience.
1 [====] wider
1 [====] prosthetics
3 [====] term
1 [====] Longer
1 [====] someday.
2 [====] solved
1 [====] body.
1 [====] coding
1 [====] understands
1 [====] nobody
1 [====] cochlea.
1 [====] eardrum
1 [====] replacing
1 [====] thereby
1 [====] impulses
2 [====] nerve
1 [====] convert
1 [====] auditory
1 [====] directly
1 [====] couple
1 [====] devices
1 [====] deaf,
1 [====] majority
1 [====] programming.
1 [====] input
1 [====] voice
1 [====] programmers
1 [====] commands.
1 [====] enter
1 [====] disabilities
1 [====] syndrome
1 [====] tunnel
1 [====] carpal
2 [====] calls
1 [====] telephone
1 [====] deaf
3 [====] recognition
1 [====] Speech
1 [====] aloud.
1 [====] synthesizers
3 [====] speech
1 [====] character
1 [====] Optical
1 [====] settings.
3 [====] industrial
1 [====] certain
1 [====] handicapped
1 [====] boon
1 [====] areas,
1 [====] limited
1 [====] behavior.
1 [====] are:
1 [====] Tests
1 [====] additional
1 [====] section.
1 [====] reserve
1 [====] I'll
1 [====] memory,
3 [====] prosthetic
7 [====] Test
1 [====] ideas.
1 [====] fun
1 [====] illusions
1 [====] adults
1 [====] kids
1 [====] remains
1 [====] stunning.
1 [====] Pixar
1 [====] Lucasfilm
1 [====] characters
1 [====] effects"
1 [====] "special
1 [====] symbiosis,
1 [====] man-machine
3 [====] us.
1 [====] outshine
5 [====] area
1 [====] rendering
1 [====] Visual
1 [====] gestures,...).
1 [====] man-smiling,
1 [====] (horse-running,
1 [====] behaviors
1 [====] object
1 [====] dynamic
1 [====] identify
1 [====] recognition:
1 [====] area,
1 [====] Turing."
4 [====] pass
2 [====] "Please
3 [====] translates
1 [====] Turing",
1 [====] de
1 [====] l'essai
1 [====] passer
1 [====] "Veuillez
1 [====] Test"
1 [====] sentence
1 [====] Spanish.
1 [====] Portuguese,
1 [====] Italian,
1 [====] German,
1 [====] French,
3 [====] English
1 [====] sentences
1 [====] context-free
1 [====] art.
2 [====] state
1 [====] fair
1 [====] (http://babelfish.altavista.com/)
1 [====] Bablefish
1 [====] obvious.
1 [====] translation,
3 [====] translation
1 [====] faithful
1 [====] possibility
1 [====] opens
1 [====] language.
1 [====] representation
2 [====] internal
1 [====] Mandarin,
1 [====] say
1 [====] teaches
1 [====] representation.
2 [====] rich
1 [====] English,
2 [====] passes
1 [====] exist
1 [====] favor.
1 [====] fallen
3 [====] topic
1 [====] 1950s,
1 [====] thrust
2 [====] important
1 [====] attention
1 [====] received
1 [====] prepared
1 [====] person,
1 [====] Speaking
1 [====] typing.
1 [====] listening,
1 [====] reading,
1 [====] text-to-speech
1 [====] speech-to-text
1 [====] disabled
1 [====] impaired,
2 [====] hearing
1 [====] blind,
1 [====] aside,
1 [====] Joking
1 [====] all.)
3 [====] understand
1 [====] (note:
1 [====] joke
1 [====] words.
1 [====] 95%
1 [====] recognizes
1 [====] microphone
1 [====] speaker
1 [====] trained
1 [====] continuous
1 [====] unlimited-vocabulary,
1 [====] Right
4 [====] 10%
1 [====] dropping
1 [====] error
1 [====] steady,
2 [====] Progress
1 [====] nets.
1 [====] semantic
1 [====] parsers,
1 [====] dictionaries,
1 [====] understanding,
1 [====] deeper
2 [====] benefited
1 [====] algorithms
1 [====] useable.
3 [====] quite
1 [====] Speech-to-text
1 [====] sounds.
1 [====] identifying
1 [====] difficult:
1 [====] Interestingly,
3 [====] Both
7 [====] think
1 [====] human,
1 [====] daunting:
1 [====] themselves
1 [====] sub-challenges
3 [====] Test,
1 [====] Implicit
2 [====] speech,
2 [====] hearing,
1 [====] Tests:
1 [====] Three
1 [====] 3.2.
1 [====] Understanding
1 [====] is.
1 [====] clueless
1 [====] brains
1 [====] genomes
1 [====] puzzle:
1 [====] handed
2 [====] thinking
2 [====] radical
1 [====] Out-of-the-box,
3 [====] different
1 [====] Something
3 [====] decade.
1 [====] track
1 [====] super-computers
2 [====] databases
2 [====] Clearly,
1 [====] babies.
2 [====] going
1 [====] fundamental.
1 [====] missing
2 [====] indicate
1 [====] true.
1 [====] arguments
1 [====] disk).
1 [====] floppy
1 [====] fit
1 [====] pairs
2 [====] base
2 [====] unique
1 [====] individual
2 [====] residue
1 [====] chimpanzees,
1 [====] junk,
1 [====] pairs.
1 [====] genome
6 [====] argument
1 [====] smaller
1 [====] 10,000
1 [====] slower
1 [====] kidding).
3 [====] supercomputers
1 [====] seeing
1 [====] biggest
1 [====] thirty
1 [====] tera-operations
1 [====] execute
1 [====] fabric
1 [====] synaptic
1 [====] neurons
1 [====] Terabytes).
1 [====] (100
1 [====] bytes
1 [====] 1014
2 [====] stores
1 [====] brain
1 [====] experiments
1 [====] Various
1 [====] follows.
1 [====] goes
1 [====] intelligence.
2 [====] nearing
1 [====] ought
1 [====] frog,
2 [====] spider
1 [====] Desktop
1 [====] used.
1 [====] argument"
1 [====] "counting
1 [====] expensive.
1 [====] computable.
2 [====] anything
1 [====] contribution:
3 [====] famous
1 [====] pun
1 [====] complete.
1 [====] NP
1 [====] harder
1 [====] short
1 [====] complete
1 [====] easy."
1 [====] nothing
1 [====] "Where
1 [====] Pit
1 [====] expression
1 [====] trouble
1 [====] Enough
1 [====] deliver.
1 [====] breakthroughs,
1 [====] promised
2 [====] community
1 [====] winter.
1 [====] (AI).
1 [====] artificial
1 [====] pessimism
2 [====] general
1 [====] Despite
1 [====] child,
1 [====] learning
1 [====] adaptation,
1 [====] environment.
1 [====] settings
1 [====] optimal
1 [====] converge
1 [====] parameters
1 [====] structure
1 [====] pre-established
1 [====] cases,
1 [====] learning.
1 [====] adaptation
1 [====] static
1 [====] executing
1 [====] concepts.
1 [====] forming
1 [====] [11].
1 [====] opposed
1 [====] amplification)
1 [====] (intelligence
1 [====] IA
1 [====] Vinge
1 [====] Vernor
4 [====] rather
1 [====] collaborators
1 [====] acting
1 [====] roles,
1 [====] evaluation.
1 [====] testing,
1 [====] manufacturing,
1 [====] simulation,
1 [====] conceptualization,
1 [====] champion.
1 [====] chess
1 [====] beat
1 [====] Blue
1 [====] Deep
1 [====] IBM's
1 [====] news
1 [====] page
1 [====] front
1 [====] mathematics.
1 [====] open
1 [====] [9]),
1 [====] four-color
2 [====] (the
1 [====] theorems
2 [====] several
1 [====] proofs
4 [====] examples
1 [====] stunning
1 [====] relationship.
1 [====] symbiotic
1 [====] scientists:
1 [====] partnership
1 [====] machine-intelligence
1 [====] date,
1 [====] brains.
1 [====] parity
1 [====] persuaded
1 [====] specific,
4 [====] Test.
2 [====] eventually
1 [====] expect
2 [====] passing
1 [====] yourself.
7 [====] judge
1 [====] (http://www.loebner.net/Prizef/loebner-prize.html)
1 [====] ChatterBots
1 [====] interview
3 [====] intelligent.
1 [====] characterize
1 [====] Few
1 [====] optimistic.
2 [====] forecast
1 [====] stands
2 [====] estimate
1 [====] bytes,
1 [====] 1015
1 [====] 1012
1 [====] estimated
1 [====] powerful.
1 [====] comparably
1 [====] capacity,
1 [====] requisite
1 [====] accurate,
1 [====] astonishingly
1 [====] His
1 [====] well.
1 [====] predictions
1 [====] hindsight,
5 [====] benefit
1 [====] contradicted."
1 [====] expecting
1 [====] speak
1 [====] altered
1 [====] opinion
1 [====] educated
1 [====] words
1 [====] century
1 [====] Nevertheless
1 [====] meaningless
1 [====] think?"
1 [====] "Can
1 [====] questioning.
1 [====] minutes
1 [====] identification
4 [====] making
1 [====] chance
1 [====] cent
1 [====] 70
1 [====] interrogator
1 [====] average
1 [====] play
1 [====] 109,
1 [====] programme
1 [====] possible,
1 [====] years'
1 [====] "I
1 [====] was:
1 [====] re-reading.
1 [====] worth
3 [====] time,
2 [====] fool
3 [====] woman.
1 [====] pretending
5 [====] man
1 [====] replaces
1 [====] Turning
1 [====] 70%
1 [====] practice,
1 [====] 50%
1 [====] impersonator,
1 [====] truth.
1 [====] tries
2 [====] woman
1 [====] pretends
1 [====] lies
1 [====] except
1 [====] easy,
1 [====] discover
4 [====] trying
1 [====] minutes,
1 [====] Email.
1 [====] another,
1 [====] other.
1 [====] room,
1 [====] game,
1 [====] played
1 [====] Game,
1 [====] Imitation
1 [====] 3.1
1 [====] test.
1 [====] litmus
1 [====] test,
1 [====] will.
3 [====] free
1 [====] evaluate
1 [====] define
1 [====] pragmatist.
1 [====] will?
1 [====] volition,
1 [====] identity,
1 [====] having
1 [====] entities,
1 [====] conscious
1 [====] tools,
1 [====] Will
2 [====] today:
1 [====] echoed
2 [====] largely
1 [====] raged
1 [====] debate
1 [====] idea
2 [====] argued
1 [====] [9].
1 [====] paper
1 [====] Intelligence"
1 [====] recall
1 [====] begin,
1 [====] 3.
3 [====] specific
1 [====] crisply
1 [====] unable
2 [====] vision,
2 [====] ubiquitous
1 [====] bear
3 [====] Many
1 [====] [8].
1 [====] networked
1 [====] universe
2 [====] articulated
1 [====] Newell
1 [====] computing.
1 [====] say,
1 [====] wish
1 [====] generic
2 [====] core
1 [====] tried
1 [====] problems,
1 [====] picking
2 [====] theoretical
2 [====] challenging
1 [====] pose
1 [====] clause.
1 [====] it"
1 [====] "and
2 [====] necessarily
3 [====] Some
1 [====] agenda.
1 [====] theory
18 [====] IT
1 [====] articulating
2 [====] job
1 [====] talks
1 [====] Previous
1 [====] selected
1 [====] knowledge.
1 [====] 1940's
1 [====] 1870s
1 [====] visionaries
1 [====] seminal
1 [====] context
1 [====] organizing
2 [====] settled
1 [====] ultimately
1 [====] people,
1 [====] consulted
1 [====] lectures,
1 [====] eleven
1 [====] remaining
4 [====] Goals
2 [====] Long-term
3 [====] 2.
2 [====] goals.
1 [====] systems-research
1 [====] spectrum
1 [====] lecture,
2 [====] scaleabilty
1 [====] [7].
2 [====] MEMS
1 [====] Programming
1 [====] processing.
1 [====] onboard
1 [====] effectors,
1 [====] sensors,
1 [====] 10$
1 [====] (MEMS).
1 [====] Micro-Electro-Mechanical
4 [====] processors
1 [====] movement
1 [====] http://iram.cs.berkeley.edu/istore/).Still
1 [====] cards
1 [====] disks,
1 [====] memories,
1 [====] imbedded
1 [====] pursuing
1 [====] Others
1 [====] multi-processor).
1 [====] (symmetric
1 [====] SMP
1 [====] processor
1 [====] chip:
1 [====] streams
1 [====] execution
1 [====] multiple
1 [====] architectures
1 [====] urgent
5 [====] scalability
1 [====] later.
1 [====] issue
1 [====] return
1 [====] custom-built
3 [====] clusters
1 [====] Virtually
2 [====] achieved.
2 [====] scaleable
1 [====] automation
1 [====] Only
1 [====] serious
1 [====] Managing
1 [====] pain.
1 [====] considerable
1 [====] performance,
1 [====] spectacular
1 [====] groups
1 [====] 3.).
1 [====] top
1 [====] consisting
1 [====] ASCI
1 [====] (http://www.beowulf.org/),
1 [====] inexpensive
1 [====] Beowulf
1 [====] resort.
1 [====] embraced
4 [====] parallel
1 [====] explicitly
1 [====] programmer
2 [====] Parallel
1 [====] successful.
1 [====] quickly,
3 [====] parallelism
1 [====] progress.
1 [====] modest
2 [====] highly
1 [====] monolithic
1 [====] running
1 [====] automatically.
3 [====] creating
1 [====] it,
2 [====] learned
2 [====] merely
1 [====] parallel.
1 [====] embarrassingly
3 [====] transaction
1 [====] servers,
2 [====] databases,
2 [====] easy.
1 [====] laundry.
1 [====] 3.)
1 [====] Figures
2 [====] sight
1 [====] 1985.
1 [====] price
2 [====] year)
1 [====] (40%
1 [====] (60%
1 [====] advertising.
1 [====] accesses
1 [====] essence,
1 [====] cheap.
1 [====] micro-dollar.
2 [====] process
1 [====] lot.
4 [====] day.
1 [====] interactions
1 [====] AOL
3 [====] comparable
8 [====] US
1 [====] cash
1 [====] demonstrated
1 [====] Companies
2 [====] know
1 [====] engineering.
1 [====] protocols
2 [====] needed
1 [====] apprehension,
2 [====] share
3 [====] scale
1 [====] worries
2 [====] PITAC
1 [====] larger.
1 [====] size
1 [====] nodes,
1 [====] all.
1 [====] surprised
1 [====] world-scale
1 [====] Internet.
1 [====] direction
1 [====] unexpected
1 [====] 1.There
1 [====] reasons.
1 [====] years?
1 [====] succeeded
1 [====] http://www.sdss.org/.
1 [====] http://terraserver.microsoft.com/
1 [====] exploring
1 [====] Lately,
2 [====] improve
1 [====] studies
2 [====] led
1 [====] parallelism.
1 [====] showed
1 [====] parallel,
1 [====] run
1 [====] model
1 [====] systems,
1 [====] highly-parallel
1 [====] focused
1 [====] particular
2 [====] My
1 [====] eye
1 [====] scaleup
1 [====] 10x
1 [====] management.
3 [====] automatic
1 [====] tolerance
1 [====] fault
1 [====] balancing.
1 [====] load
1 [====] attack.
1 [====] plan
1 [====] load-distribution
1 [====] fault-tolerance,
2 [====] services.
1 [====] failure
1 [====] mask
1 [====] modules.
1 [====] migrate
1 [====] grows,
1 [====] overall
1 [====] performing
1 [====] modules,
1 [====] aspects
2 [====] leads
1 [====] Attacking
1 [====] node
1 [====] realistic
1 [====] giga-watts,
1 [====] dollars,
2 [====] billions
1 [====] limit:
1 [====] kind
1 [====] limits.
1 [====] devise
1 [====] Cocke.
1 [====] John
4 [====] me
2 [====] motivated
2 [====] sample
1 [====] Scalability:
1 [====] 2.2.
1 [====] going.
4 [====] researchers
1 [====] steps
1 [====] along
1 [====] milestones
1 [====] intermediate
1 [====] desirable
1 [====] Incremental:
2 [====] tell
1 [====] measure
1 [====] Solutions
1 [====] Testable:
2 [====] large.
1 [====] scientists,
1 [====] clearly
1 [====] resulting
1 [====] achieved,
1 [====] Useful:
1 [====] impossible.
1 [====] camp
4 [====] goals
1 [====] implicit
1 [====] explicit
1 [====] achieve
1 [====] Challenging:
1 [====] friends
1 [====] support.
1 [====] colleagues
1 [====] recruit
1 [====] helps
1 [====] statement
1 [====] clear
2 [====] Having
1 [====] explain
1 [====] suffice
1 [====] paragraph
1 [====] sentence,
1 [====] state.
1 [====] Understandable:
1 [====] properties:
5 [====] long-range
1 [====] attributes
1 [====] list,
1 [====] Before
1 [====] Goal?
2 [====] Range
2 [====] Long
1 [====] Good
1 [====] Makes
1 [====] 2.1.
1 [====] others.
1 [====] complements
1 [====] list
1 [====] science.
1 [====] agendas
1 [====] presented
2 [====] Other
1 [====] projects.
1 [====] mind?
1 [====] about?
1 [====] talking
6 [====] funding
1 [====] plea
1 [====] June.
1 [====] granted
2 [====] visas
2 [====] H1
1 [====] FY99
1 [====] months:
1 [====] 6
1 [====] exhausted
1 [====] quota
2 [====] entire
1 [====] extra
1 [====] 115,000
1 [====] year:
1 [====] recommendation
1 [====] acted
1 [====] immigration
1 [====] facilitating
2 [====] near-term
1 [====] fix
3 [====] recommends
1 [====] ambitious
7 [====] university
1 [====] grants,
1 [====] longer-term
1 [====] shift
1 [====] agencies
2 [====] double
1 [====] century,
1 [====] 21st
3 [====] expeditions
2 [====] style
3 [====] Clark
1 [====] sponsor
1 [====] [4].
1 [====] http://www.ccic.gov/ac/report/
1 [====] (PITAC)
1 [====] Presidential
1 [====] study
1 [====] views
1 [====] recommendations.
1 [====] 1.7.
1 [====] nations.
1 [====] leadership
1 [====] complacent,
1 [====] becomes
2 [====] States
2 [====] United
1 [====] international.
1 [====] workers
1 [====] global,
1 [====] business,
2 [====] competitive
1 [====] clear,
1 [====] commercialize.
9 [====] ideas
1 [====] universities),
1 [====] leadership,
1 [====] nation.
3 [====] products
3 [====] transforming
1 [====] extremely
3 [====] industry.
1 [====] jingoistic
1 [====] world-wide.
3 [====] investment
2 [====] altruistic
1 [====] jingoistic.
4 [====] fund
1 [====] UN
1 [====] Africans,
1 [====] Asians
1 [====] Europeans
2 [====] world.
2 [====] social
3 [====] all,
2 [====] research?
1 [====] everyone
3 [====] benefits
3 [====] argue
1 [====] component.
1 [====] teaching
1 [====] strong
2 [====] labs
1 [====] advocate
1 [====] workers.
2 [====] training
1 [====] that,
2 [====] but,
2 [====] research;
1 [====] tax
1 [====] paying
1 [====] society:
1 [====] boats
1 [====] such:
1 [====] funded
2 [====] good,
3 [====] public
1 [====] good.
2 [====] got
1 [====] Society
1 [====] commercial
1 [====] main
5 [====] Microsoft
1 [====] Apple,
1 [====] HP,
1 [====] 3Com,
2 [====] Sun,
2 [====] Intel,
1 [====] editing.
1 [====] WYSIWYG
2 [====] interfaces,
1 [====] iconic
1 [====] printing,
1 [====] bitmap
1 [====] Ethernet,
2 [====] invented
1 [====] Xerox
1 [====] C
1 [====] UNIX,
1 [====] transistor,
1 [====] AT&T
1 [====] company.
1 [====] budgets.
5 [====] R&D
1 [====] integrators
1 [====] general,
1 [====] Dell
1 [====] EDS.
1 [====] company
1 [====] consulting
1 [====] annual
1 [====] MCI-WorldCom
1 [====] cannot.
1 [====] departments.
2 [====] faculty
1 [====] tenure-track
2 [====] number
1 [====] measure,
1 [====] estimate,
1 [====] researchers.
1 [====] 2,500
1 [====] funds
1 [====] research,
2 [====] 500
1 [====] spends
2 [====] guess
1 [====] products).
1 [====] existing
1 [====] development,
1 [====] advanced
1 [====] R
1 [====] near
1 [====] connected
1 [====] pure
1 [====] total)
1 [====] (1%
1 [====] development.
1 [====] About
1 [====] revenues
1 [====] 15%
1 [====] 5%
1 [====] spend
1 [====] Amazon,...)
1 [====] AOL,
1 [====] Cisco,
1 [====] Microsoft,
1 [====] Packard,
1 [====] Hewlett
1 [====] Lucent,
1 [====] (IBM,
1 [====] leading
1 [====] do."
1 [====] "most
1 [====] is:
1 [====] don't
2 [====] growing
2 [====] industry?
1 [====] trillion-dollar
1 [====] subsidize
1 [====] made,
1 [====] 1.6.
6 [====] products.
3 [====] before
1 [====] mature
1 [====] rush.
3 [====] gold
1 [====] shortening
1 [====] lag
1 [====] period
1 [====] gestation
1 [====] billion-dollar-per-year
1 [====] anomalies
1 [====] trends,
1 [====] patterns,
1 [====] mining
4 [====] explore
1 [====] distributed
1 [====] went
1 [====] feeding
2 [====] constantly
1 [====] continues
1 [====] active
1 [====] promises.
1 [====] reliability,
1 [====] usability,
1 [====] deliver
1 [====] became
1 [====] relational
1 [====] nearly
1 [====] discipline,
1 [====] Closer
1 [====] society.
1 [====] impact
1 [====] results
1 [====] issues,
2 [====] fundamental
1 [====] focuses
1 [====] [5],
1 [====] Quadrant
1 [====] Incidentally,
1 [====] fields.
1 [====] networking,
1 [====] happened
2 [====] dollar
1 [====] turned
1 [====] Sharing
1 [====] Time
1 [====] industry-sponsored
1 [====] government-sponsored
1 [====] shows
1 [====] reports.
1 [====] figure
1 [====] [3].
1 [====] Revolution
1 [====] [2]
1 [====] Infrastructure
1 [====] nations
1 [====] Southerland
1 [====] Brooks
1 [====] NRC
1 [====] recommend
1 [====] mean,
1 [====] off
1 [====] pays
1 [====] Pioneering
1 [====] 1.5.
1 [====] parents
1 [====] children,
1 [====] philanthropy
1 [====] industry,
1 [====] government,
1 [====] responsibility
1 [====] 2020.
1 [====] corn
1 [====] seed
1 [====] opportunity
1 [====] [6].
1 [====] Mississippi
1 [====] west
1 [====] wave
1 [====] migratory
2 [====] explorers
1 [====] corps
1 [====] studies,
1 [====] sociological
1 [====] maps,
2 [====] expedition
1 [====] territories.
1 [====] sent
1 [====] this,
1 [====] accelerate
1 [====] 2000.
1 [====] territories
2 [====] predicted
2 [====] Jefferson
1 [====] At
1 [====] folly.
1 [====] ridiculed
1 [====] France,
1 [====] Territories
1 [====] Louisiana
1 [====] bought
1 [====] Tomas
1 [====] Recall
1 [====] scientists.
3 [====] generation
1 [====] train
1 [====] ideas,
1 [====] far-out
1 [====] efforts
1 [====] cyberspace:
1 [====] universities
1 [====] leave
1 [====] startups?
1 [====] view.
1 [====] longer
1 [====] rich,
1 [====] projects
1 [====] casing
2 [====] mentality
2 [====] rush
1 [====] Those
2 [====] ago.
1 [====] decades
1 [====] pioneers
1 [====] explored
1 [====] exploiting
1 [====] territory
1 [====] lost
1 [====] settlers
1 [====] pioneers,
1 [====] explorers,
1 [====] 1.4.
1 [====] thing.
1 [====] Overall,
1 [====] optimism.
1 [====] claims,
1 [====] staking
1 [====] startups
1 [====] territory.
1 [====] stake
1 [====] about,
1 [====] sloshing
1 [====] money
1 [====] started.
2 [====] boom
1 [====] recessions
1 [====] skipped
1 [====] economy
1 [====] credited
1 [====] industries
1 [====] high-export
1 [====] high-paying
3 [====] growth
1 [====] Economists
1 [====] wealth
1 [====] play.
1 [====] work,
1 [====] learn,
1 [====] changing
1 [====] goods
2 [====] Cyberspace
1 [====] Americas
1 [====] discovery
1 [====] equivalent
1 [====] continent
1 [====] revolution
1 [====] New
1 [====] 1.3.
1 [====] Tradeoffs
1 [====] ago,
1 [====] impossibly
1 [====] itself:
1 [====] redefine
1 [====] rapid
1 [====] tomorrow.
3 [====] stop
1 [====] innovating
1 [====] soon
1 [====] continue,
1 [====] 1).
1 [====] accelerating
1 [====] barrier.
1 [====] inventing
1 [====] sustain
1 [====] growth.
1 [====] limit
1 [====] Eventually
1 [====] minutes.
1 [====] stomach)
1 [====] (bacteria
1 [====] coli
1 [====] forever.
3 [====] Exponential
1 [====] 15%,
1 [====] slowly.
1 [====] output
1 [====] technology,
1 [====] underlying
1 [====] true
1 [====] that!
2 [====] deployed
1 [====] pessimistic:
1 [====] prediction
1 [====] meaning
1 [====] triple
1 [====] Glider
1 [====] George
1 [====] history.
2 [====] curve
1 [====] equals
1 [====] built,
1 [====] predicts
1 [====] driving
1 [====] Change.
1 [====] Radical
1 [====] Constant
1 [====] Means
1 [====] Growth
1 [====] 1.1.
1 [====] all!
1 [====] Thank
1 [====] community.
1 [====] represent
1 [====] chosen
2 [====] proud
1 [====] effort,
1 [====] broadly,
1 [====] More
1 [====] friends.
1 [====] closest
1 [====] effort..
1 [====] collaborative
1 [====] did:
1 [====] personally
1 [====] point
9 [====] Jim,
1 [====] Robert
1 [====] Tom
1 [====] Dina
1 [====] Andreas
1 [====] Andrea
1 [====] Irv
1 [====] Franco
1 [====] Don
1 [====] Mike
1 [====] project,
1 [====] effort.
1 [====] Everything
1 [====] brilliant
1 [====] 40
1 [====] Over
1 [====] colleagues.
1 [====] mentors
1 [====] thank
1 [====] prize.
1 [====] generous
1 [====] Technologies
1 [====] Lucent
1 [====] Thanks
1 [====] winner.
1 [====] Award
1 [====] 1998
1 [====] selecting
1 [====] committee
1 [====] Awards
1 [====] thanking
1 [====] begin
1 [====] outlines
3 [====] talk
2 [====] argues
1 [====] setting.
1 [====] component
1 [====] education
1 [====] turn
1 [====] benefits,
1 [====] societal
1 [====] Introduction
1 [====] 1.
1 [====] technologies.
1 [====] others,
1 [====] orthogonal
1 [====] stated
1 [====] simply
1 [====] senses.
3 [====] include
1 [====] extends
1 [====] might).
1 [====] (as
1 [====] summarizes
1 [====] evaluates,
1 [====] digests,
1 [====] indexes,
1 [====] organizes,
2 [====] extend
1 [====] self-replicating
1 [====] self-managing,
1 [====] self-programming,
1 [====] highly-available,
1 [====] highly-secure,
1 [====] visions.
1 [====] Babbage,
1 [====] broaden
1 [====] defines
1 [====] decades.
1 [====] provided
1 [====] associated
1 [====] distance
1 [====] realizing
1 [====] verge
1 [====] Abstract:
1 [====] USA
1 [====] 94105,
1 [====] CA
1 [====] SF,
1 [====] St.
1 [====] Howard
1 [====] 301
2 [====] Gray
2 [====] Jim
2 [====] Information-Technology
2 [====] Next?
1 [====] 98052
1 [====] WA
1 [====] Redmond,
1 [====] Way
1 [====] Corporation
1 [====] Division
1 [====] Advanced
1 [====] MS-TR-99-50
1 [====] Technical
1 [====] June
Exec Time: 409 ms
