\contentsline {chapter}{\numberline {第1章}概要}{2}{chapter.1}
\contentsline {chapter}{\numberline {第2章}実装}{3}{chapter.2}
\contentsline {section}{\numberline {2.1}サーバーのディレクトリ構造}{3}{section.2.1}
\contentsline {section}{\numberline {2.2}LuaKatsu webアプリケーション}{3}{section.2.2}
\contentsline {section}{\numberline {2.3}\textrm {\LaTeX } コンパイルサーバー}{5}{section.2.3}
\contentsline {chapter}{\numberline {第3章}評価}{8}{chapter.3}
\contentsline {section}{\numberline {3.1}LuaKatsu webアプリケーション}{8}{section.3.1}
\contentsline {subsection}{\numberline {3.1.1}評価方法}{8}{subsection.3.1.1}
\contentsline {subsection}{\numberline {3.1.2}評価結果}{8}{subsection.3.1.2}
\contentsline {section}{\numberline {3.2}\LaTeX コンパイルサーバー}{9}{section.3.2}
\contentsline {subsection}{\numberline {3.2.1}評価方法}{9}{subsection.3.2.1}
\contentsline {subsection}{\numberline {3.2.2}評価結果}{9}{subsection.3.2.2}
\contentsline {chapter}{\numberline {第4章}まとめ}{10}{chapter.4}
\contentsline {chapter}{\numberline {付録A}nginx.conf 全体}{11}{appendix.A}
