\BOOKMARK [0][-]{chapter.1}{}{}% 1
\BOOKMARK [0][-]{chapter.1}{\376\377\060\253\060\374\060\315\060\353\060\156\060\263\060\363\060\321\060\244\060\353\060\150\060\321\060\351\060\341\060\277\060\156\212\055\133\232}{}% 2
\BOOKMARK [1][-]{section.1.1}{\376\377\060\275\060\374\060\271\060\263\060\374\060\311\060\156\134\125\225\213}{chapter.1}% 3
\BOOKMARK [1][-]{section.1.2}{\376\377\060\307\060\325\060\251\060\353\060\310\060\321\060\351\060\341\060\374\060\277\060\374\060\156\212\055\133\232}{chapter.1}% 4
\BOOKMARK [1][-]{section.1.3}{\376\377\060\321\060\351\060\341\060\374\060\277\060\374\060\156\212\055\133\232}{chapter.1}% 5
\BOOKMARK [1][-]{section.1.4}{\376\377\060\263\060\363\060\321\060\244\060\353\146\102\225\223\060\156\212\010\156\054}{chapter.1}% 6
\BOOKMARK [0][-]{chapter.2}{\376\377\060\253\060\374\060\315\060\353\060\156\060\352\060\342\060\374\060\310\060\373\060\307\060\320\060\303\060\260}{}% 7
\BOOKMARK [1][-]{section.2.1}{\376\377\060\262\060\271\060\310\000O\000S\060\156\060\253\060\374\060\315\060\353\060\321\060\351\060\341\060\374\060\277\060\374\212\055\133\232}{chapter.2}% 8
\BOOKMARK [1][-]{section.2.2}{\376\377\060\263\060\363\060\321\060\244\060\353\060\001\060\326\060\374\060\310\060\355\060\374\060\300\060\374\060\170\060\156\212\055\133\232}{chapter.2}% 9
\BOOKMARK [1][-]{section.2.3}{\376\377\000g\000d\000b}{chapter.2}% 10
\BOOKMARK [0][-]{chapter.3}{\376\377\060\267\060\271\060\306\060\340\060\263\060\374\060\353\060\156\217\375\122\240}{}% 11
\BOOKMARK [1][-]{section.3.1}{\376\377\060\267\060\271\060\306\060\340\060\263\060\374\060\353\060\156\165\152\123\367\060\156\122\162\060\212\137\123\060\146}{chapter.3}% 12
\BOOKMARK [1][-]{section.3.2}{\376\377\225\242\145\160\060\156\133\232\177\251}{chapter.3}% 13
\BOOKMARK [1][-]{section.3.3}{\376\377\000M\000a\000k\000e\000f\000i\000l\000e\060\156\146\370\060\115\143\333\060\110}{chapter.3}% 14
\BOOKMARK [1][-]{section.3.4}{\376\377\060\253\060\374\060\315\060\353\060\263\060\363\060\321\060\244\060\353}{chapter.3}% 15
\BOOKMARK [1][-]{section.3.5}{\376\377\060\242\060\327\060\352\060\261\060\374\060\267\060\347\060\363\060\156\117\134\142\020}{chapter.3}% 16
\BOOKMARK [1][-]{section.3.6}{\376\377\060\242\060\327\060\352\060\261\060\374\060\267\060\347\060\363\060\156\133\237\210\114}{chapter.3}% 17
\BOOKMARK [0][-]{chapter.4}{\376\377\060\307\060\320\060\244\060\271\060\373\060\311\060\351\060\244\060\320\060\156\117\134\142\020}{}% 18
\BOOKMARK [1][-]{section.4.1}{\376\377\152\137\200\375}{chapter.4}% 19
\BOOKMARK [1][-]{section.4.2}{\376\377\060\307\060\320\060\244\060\271\060\311\060\351\060\244\060\320\060\156\133\237\210\305}{chapter.4}% 20
\BOOKMARK [1][-]{section.4.3}{\376\377\000M\000a\000k\000e\000f\000i\000l\000e\060\156\117\134\142\020}{chapter.4}% 21
\BOOKMARK [1][-]{section.4.4}{\376\377\060\253\060\374\060\315\060\353\060\252\060\326\060\270\060\247\060\257\060\310\060\156\117\134\142\020}{chapter.4}% 22
\BOOKMARK [1][-]{section.4.5}{\376\377\060\242\060\327\060\352\060\261\060\374\060\267\060\347\060\363\060\156\117\134\142\020}{chapter.4}% 23
\BOOKMARK [1][-]{section.4.6}{\376\377\060\242\060\327\060\352\060\261\060\374\060\267\060\347\060\363\060\156\133\237\210\114}{chapter.4}% 24
\BOOKMARK [0][-]{chapter.5}{\376\377\212\255\060\177\146\370\060\115\060\156\060\147\060\115\060\213\000p\000r\000o\000c\000f\000s\060\156\117\134\142\020}{}% 25
\BOOKMARK [1][-]{section.5.1}{\376\377\152\137\200\375}{chapter.5}% 26
\BOOKMARK [1][-]{section.5.2}{\376\377\000p\000r\000o\000c\000f\000s\060\156\133\237\210\305}{chapter.5}% 27
\BOOKMARK [1][-]{section.5.3}{\376\377\060\253\060\374\060\315\060\353\060\252\060\326\060\270\060\247\060\257\060\310\060\156\117\134\142\020}{chapter.5}% 28
\BOOKMARK [1][-]{section.5.4}{\376\377\122\325\117\134\060\156\170\272\212\215}{chapter.5}% 29
\BOOKMARK [0][-]{chapter.6}{}{}% 30
\BOOKMARK [0][-]{chapter.7}{}{}% 31
\BOOKMARK [0][-]{chapter.8}{}{}% 32
\BOOKMARK [1][-]{section.8.1}{\376\377\0001\145\345\166\356}{chapter.8}% 33
\BOOKMARK [1][-]{section.8.2}{\376\377\0003\145\345\166\356}{chapter.8}% 34
\BOOKMARK [0][-]{chapter.9}{}{}% 35
