\contentsline {chapter}{実験の目的}{2}
\contentsline {chapter}{実験方法}{2}
\contentsline {section}{\numberline {1.}実験環境}{2}
\contentsline {section}{\numberline {2.}実験に用いたプログラム(概要)}{3}
\contentsline {chapter}{実験結果}{3}
\contentsline {section}{\numberline {3.}実験に用いたプログラム}{5}
\contentsline {chapter}{考察}{7}
